{
  "items": [
    {
      "campaign_id": 1,
      "begin_at": "2019/04/25",
      "end_at": "2019/05/25"
    },
    {
      "campaign_id": 2,
      "begin_at": "2019/08/01 5:00:00",
      "end_at": "2019/08/03 5:00:00"
    },
    {
      "campaign_id": 3,
      "begin_at": "2019/08/03 5:00:00",
      "end_at": "2019/08/09 5:00:00"
    },
    {
      "campaign_id": 4,
      "begin_at": "2019/11/01 5:00:00",
      "end_at": "2019/11/23 4:59:59"
    },
    {
      "campaign_id": 5,
      "begin_at": "2019/11/23 5:00:00",
      "end_at": "2019/12/01 4:59:59"
    },
    {
      "campaign_id": 6,
      "begin_at": "2019/12/01 5:00:00",
      "end_at": "2019/12/18 14:59:59"
    },
    {
      "campaign_id": 7,
      "begin_at": "2019/12/18 15:00:00",
      "end_at": "2019/12/26 18:29:59"
    },
    {
      "campaign_id": 8,
      "begin_at": "2019/12/26 18:30:00",
      "end_at": "2020/01/03 23:59:59"
    },
    {
      "campaign_id": 9,
      "begin_at": "2020/01/04",
      "end_at": "2020/01/06 23:59:59"
    },
    {
      "campaign_id": 10,
      "begin_at": "2020/01/07",
      "end_at": "2020/01/15 14:59:59"
    },
    {
      "campaign_id": 11,
      "begin_at": "2020/01/15 15:00:00",
      "end_at": "2020/01/22 14:59:59"
    },
    {
      "campaign_id": 12,
      "begin_at": "2020/01/22 15:00:00",
      "end_at": "2020/02/14 14:59:59"
    },
    {
      "campaign_id": 13,
      "begin_at": "2020/02/14 15:00:00",
      "end_at": "2020/02/21 14:59:59"
    },
    {
      "campaign_id": 14,
      "begin_at": "2020/02/21 15:00:00",
      "end_at": "2020/03/17 10:59:59"
    },
    {
      "campaign_id": 15,
      "begin_at": "2020/03/17 11:00:00",
      "end_at": "2020/03/25 14:59:59"
    },
    {
      "campaign_id": 16,
      "begin_at": "2020/03/25 15:00:00",
      "end_at": "2100/12/01 4:59:59"
    }
  ]
}