{
  "items": [
    {
      "iname": "BONUS_01",
      "bonuses": [
        {
          "priority": 1,
          "add_exp_speed": 150,
          "rate_fix_sub": 10,
          "rate_fix_disp": 0,
          "unit_group_id": "UNIT_GROUP_01"
        },
        {
          "priority": 2,
          "add_exp_speed": 130,
          "rate_fix_sub": 5,
          "rate_fix_disp": 1,
          "unit_group_id": "UNIT_GROUP_02"
        },
        {
          "priority": 3,
          "add_exp_speed": 120,
          "rate_fix_sub": 2,
          "rate_fix_disp": 2,
          "unit_group_id": "UNIT_GROUP_03"
        },
        {
          "priority": 4,
          "add_exp_speed": 110,
          "rate_fix_sub": 1,
          "rate_fix_disp": 3,
          "unit_group_id": "UNIT_GROUP_04"
        }
      ]
    },
    {
      "iname": "BONUS_02",
      "bonuses": [
        {
          "priority": 1,
          "add_exp_speed": 150,
          "rate_fix_sub": 10,
          "rate_fix_disp": 0,
          "unit_group_id": "UNIT_GROUP_05"
        },
        {
          "priority": 2,
          "add_exp_speed": 130,
          "rate_fix_sub": 5,
          "rate_fix_disp": 1,
          "unit_group_id": "UNIT_GROUP_06"
        },
        {
          "priority": 3,
          "add_exp_speed": 120,
          "rate_fix_sub": 2,
          "rate_fix_disp": 2,
          "unit_group_id": "UNIT_GROUP_07"
        },
        {
          "priority": 4,
          "add_exp_speed": 110,
          "rate_fix_sub": 1,
          "rate_fix_disp": 3,
          "unit_group_id": "UNIT_GROUP_08"
        }
      ]
    },
    {
      "iname": "BONUS_003",
      "bonuses": [
        {
          "priority": 1,
          "add_exp_speed": 150,
          "rate_fix_sub": 10,
          "rate_fix_disp": 0,
          "unit_group_id": "UNIT_GROUP_009"
        },
        {
          "priority": 2,
          "add_exp_speed": 130,
          "rate_fix_sub": 5,
          "rate_fix_disp": 1,
          "unit_group_id": "UNIT_GROUP_010"
        },
        {
          "priority": 3,
          "add_exp_speed": 120,
          "rate_fix_sub": 2,
          "rate_fix_disp": 2,
          "unit_group_id": "UNIT_GROUP_011"
        },
        {
          "priority": 4,
          "add_exp_speed": 110,
          "rate_fix_sub": 1,
          "rate_fix_disp": 3,
          "unit_group_id": "UNIT_GROUP_012"
        }
      ]
    },
    {
      "iname": "BONUS_004",
      "bonuses": [
        {
          "priority": 1,
          "add_exp_speed": 150,
          "rate_fix_sub": 10,
          "rate_fix_disp": 0,
          "unit_group_id": "UNIT_GROUP_013"
        },
        {
          "priority": 2,
          "add_exp_speed": 130,
          "rate_fix_sub": 5,
          "rate_fix_disp": 1,
          "unit_group_id": "UNIT_GROUP_014"
        },
        {
          "priority": 3,
          "add_exp_speed": 120,
          "rate_fix_sub": 2,
          "rate_fix_disp": 2,
          "unit_group_id": "UNIT_GROUP_015"
        },
        {
          "priority": 4,
          "add_exp_speed": 110,
          "rate_fix_sub": 1,
          "rate_fix_disp": 3,
          "unit_group_id": "UNIT_GROUP_016"
        }
      ]
    },
    {
      "iname": "BONUS_005",
      "bonuses": [
        {
          "priority": 1,
          "add_exp_speed": 150,
          "rate_fix_sub": 10,
          "rate_fix_disp": 0,
          "unit_group_id": "UNIT_GROUP_017"
        },
        {
          "priority": 2,
          "add_exp_speed": 130,
          "rate_fix_sub": 5,
          "rate_fix_disp": 1,
          "unit_group_id": "UNIT_GROUP_018"
        },
        {
          "priority": 3,
          "add_exp_speed": 120,
          "rate_fix_sub": 2,
          "rate_fix_disp": 2,
          "unit_group_id": "UNIT_GROUP_019"
        },
        {
          "priority": 4,
          "add_exp_speed": 110,
          "rate_fix_sub": 1,
          "rate_fix_disp": 3,
          "unit_group_id": "UNIT_GROUP_020"
        }
      ]
    },
    {
      "iname": "BONUS_006",
      "bonuses": [
        {
          "priority": 1,
          "add_exp_speed": 150,
          "rate_fix_sub": 10,
          "rate_fix_disp": 0,
          "unit_group_id": "UNIT_GROUP_021"
        },
        {
          "priority": 2,
          "add_exp_speed": 130,
          "rate_fix_sub": 5,
          "rate_fix_disp": 1,
          "unit_group_id": "UNIT_GROUP_022"
        },
        {
          "priority": 3,
          "add_exp_speed": 120,
          "rate_fix_sub": 2,
          "rate_fix_disp": 2,
          "unit_group_id": "UNIT_GROUP_023"
        },
        {
          "priority": 4,
          "add_exp_speed": 110,
          "rate_fix_sub": 1,
          "rate_fix_disp": 3,
          "unit_group_id": "UNIT_GROUP_024"
        }
      ]
    },
    {
      "iname": "BONUS_007",
      "bonuses": [
        {
          "priority": 1,
          "add_exp_speed": 150,
          "rate_fix_sub": 10,
          "rate_fix_disp": 0,
          "unit_group_id": "UNIT_GROUP_025"
        },
        {
          "priority": 2,
          "add_exp_speed": 130,
          "rate_fix_sub": 5,
          "rate_fix_disp": 1,
          "unit_group_id": "UNIT_GROUP_026"
        },
        {
          "priority": 3,
          "add_exp_speed": 120,
          "rate_fix_sub": 2,
          "rate_fix_disp": 2,
          "unit_group_id": "UNIT_GROUP_027"
        },
        {
          "priority": 4,
          "add_exp_speed": 110,
          "rate_fix_sub": 1,
          "rate_fix_disp": 3,
          "unit_group_id": "UNIT_GROUP_028"
        }
      ]
    },
    {
      "iname": "BONUS_008",
      "bonuses": [
        {
          "priority": 1,
          "add_exp_speed": 150,
          "rate_fix_sub": 10,
          "rate_fix_disp": 0,
          "unit_group_id": "UNIT_GROUP_029"
        },
        {
          "priority": 2,
          "add_exp_speed": 130,
          "rate_fix_sub": 5,
          "rate_fix_disp": 1,
          "unit_group_id": "UNIT_GROUP_030"
        },
        {
          "priority": 3,
          "add_exp_speed": 120,
          "rate_fix_sub": 2,
          "rate_fix_disp": 2,
          "unit_group_id": "UNIT_GROUP_031"
        },
        {
          "priority": 4,
          "add_exp_speed": 110,
          "rate_fix_sub": 1,
          "rate_fix_disp": 3,
          "unit_group_id": "UNIT_GROUP_032"
        }
      ]
    },
    {
      "iname": "BONUS_009",
      "bonuses": [
        {
          "priority": 1,
          "add_exp_speed": 150,
          "rate_fix_sub": 10,
          "rate_fix_disp": 0,
          "unit_group_id": "UNIT_GROUP_033"
        },
        {
          "priority": 2,
          "add_exp_speed": 130,
          "rate_fix_sub": 5,
          "rate_fix_disp": 1,
          "unit_group_id": "UNIT_GROUP_034"
        },
        {
          "priority": 3,
          "add_exp_speed": 120,
          "rate_fix_sub": 2,
          "rate_fix_disp": 2,
          "unit_group_id": "UNIT_GROUP_035"
        },
        {
          "priority": 4,
          "add_exp_speed": 110,
          "rate_fix_sub": 1,
          "rate_fix_disp": 3,
          "unit_group_id": "UNIT_GROUP_036"
        }
      ]
    },
    {
      "iname": "BONUS_010",
      "bonuses": [
        {
          "priority": 1,
          "add_exp_speed": 150,
          "rate_fix_sub": 10,
          "rate_fix_disp": 0,
          "unit_group_id": "UNIT_GROUP_037"
        },
        {
          "priority": 2,
          "add_exp_speed": 130,
          "rate_fix_sub": 5,
          "rate_fix_disp": 1,
          "unit_group_id": "UNIT_GROUP_038"
        },
        {
          "priority": 3,
          "add_exp_speed": 120,
          "rate_fix_sub": 2,
          "rate_fix_disp": 2,
          "unit_group_id": "UNIT_GROUP_039"
        },
        {
          "priority": 4,
          "add_exp_speed": 110,
          "rate_fix_sub": 1,
          "rate_fix_disp": 3,
          "unit_group_id": "UNIT_GROUP_040"
        }
      ]
    },
    {
      "iname": "BONUS_011",
      "bonuses": [
        {
          "priority": 1,
          "add_exp_speed": 150,
          "rate_fix_sub": 10,
          "rate_fix_disp": 0,
          "unit_group_id": "UNIT_GROUP_041"
        },
        {
          "priority": 2,
          "add_exp_speed": 130,
          "rate_fix_sub": 5,
          "rate_fix_disp": 1,
          "unit_group_id": "UNIT_GROUP_042"
        },
        {
          "priority": 3,
          "add_exp_speed": 120,
          "rate_fix_sub": 2,
          "rate_fix_disp": 2,
          "unit_group_id": "UNIT_GROUP_043"
        },
        {
          "priority": 4,
          "add_exp_speed": 110,
          "rate_fix_sub": 1,
          "rate_fix_disp": 3,
          "unit_group_id": "UNIT_GROUP_044"
        }
      ]
    },
    {
      "iname": "BONUS_012",
      "bonuses": [
        {
          "priority": 1,
          "add_exp_speed": 150,
          "rate_fix_sub": 10,
          "rate_fix_disp": 0,
          "unit_group_id": "UNIT_GROUP_045"
        },
        {
          "priority": 2,
          "add_exp_speed": 130,
          "rate_fix_sub": 5,
          "rate_fix_disp": 1,
          "unit_group_id": "UNIT_GROUP_046"
        },
        {
          "priority": 3,
          "add_exp_speed": 120,
          "rate_fix_sub": 2,
          "rate_fix_disp": 2,
          "unit_group_id": "UNIT_GROUP_047"
        },
        {
          "priority": 4,
          "add_exp_speed": 110,
          "rate_fix_sub": 1,
          "rate_fix_disp": 3,
          "unit_group_id": "UNIT_GROUP_048"
        }
      ]
    },
    {
      "iname": "BONUS_013",
      "bonuses": [
        {
          "priority": 1,
          "add_exp_speed": 150,
          "rate_fix_sub": 10,
          "rate_fix_disp": 0,
          "unit_group_id": "UNIT_GROUP_049"
        },
        {
          "priority": 2,
          "add_exp_speed": 130,
          "rate_fix_sub": 5,
          "rate_fix_disp": 1,
          "unit_group_id": "UNIT_GROUP_050"
        },
        {
          "priority": 3,
          "add_exp_speed": 120,
          "rate_fix_sub": 2,
          "rate_fix_disp": 2,
          "unit_group_id": "UNIT_GROUP_051"
        },
        {
          "priority": 4,
          "add_exp_speed": 110,
          "rate_fix_sub": 1,
          "rate_fix_disp": 3,
          "unit_group_id": "UNIT_GROUP_052"
        }
      ]
    },
    {
      "iname": "BONUS_014",
      "bonuses": [
        {
          "priority": 1,
          "add_exp_speed": 150,
          "rate_fix_sub": 10,
          "rate_fix_disp": 0,
          "unit_group_id": "UNIT_GROUP_053"
        },
        {
          "priority": 2,
          "add_exp_speed": 130,
          "rate_fix_sub": 5,
          "rate_fix_disp": 1,
          "unit_group_id": "UNIT_GROUP_054"
        },
        {
          "priority": 3,
          "add_exp_speed": 120,
          "rate_fix_sub": 2,
          "rate_fix_disp": 2,
          "unit_group_id": "UNIT_GROUP_055"
        },
        {
          "priority": 4,
          "add_exp_speed": 110,
          "rate_fix_sub": 1,
          "rate_fix_disp": 3,
          "unit_group_id": "UNIT_GROUP_056"
        }
      ]
    },
    {
      "iname": "BONUS_015",
      "bonuses": [
        {
          "priority": 1,
          "add_exp_speed": 150,
          "rate_fix_sub": 10,
          "rate_fix_disp": 0,
          "unit_group_id": "UNIT_GROUP_057"
        },
        {
          "priority": 2,
          "add_exp_speed": 130,
          "rate_fix_sub": 5,
          "rate_fix_disp": 1,
          "unit_group_id": "UNIT_GROUP_058"
        },
        {
          "priority": 3,
          "add_exp_speed": 120,
          "rate_fix_sub": 2,
          "rate_fix_disp": 2,
          "unit_group_id": "UNIT_GROUP_059"
        },
        {
          "priority": 4,
          "add_exp_speed": 110,
          "rate_fix_sub": 1,
          "rate_fix_disp": 3,
          "unit_group_id": "UNIT_GROUP_060"
        }
      ]
    },
    {
      "iname": "BONUS_016",
      "bonuses": [
        {
          "priority": 1,
          "add_exp_speed": 150,
          "rate_fix_sub": 10,
          "rate_fix_disp": 0,
          "unit_group_id": "UNIT_GROUP_061"
        },
        {
          "priority": 2,
          "add_exp_speed": 130,
          "rate_fix_sub": 5,
          "rate_fix_disp": 1,
          "unit_group_id": "UNIT_GROUP_062"
        },
        {
          "priority": 3,
          "add_exp_speed": 120,
          "rate_fix_sub": 2,
          "rate_fix_disp": 2,
          "unit_group_id": "UNIT_GROUP_063"
        },
        {
          "priority": 4,
          "add_exp_speed": 110,
          "rate_fix_sub": 1,
          "rate_fix_disp": 3,
          "unit_group_id": "UNIT_GROUP_064"
        }
      ]
    },
    {
      "iname": "BONUS_017",
      "bonuses": [
        {
          "priority": 1,
          "add_exp_speed": 150,
          "rate_fix_sub": 10,
          "rate_fix_disp": 0,
          "unit_group_id": "UNIT_GROUP_065"
        },
        {
          "priority": 2,
          "add_exp_speed": 130,
          "rate_fix_sub": 5,
          "rate_fix_disp": 1,
          "unit_group_id": "UNIT_GROUP_066"
        },
        {
          "priority": 3,
          "add_exp_speed": 120,
          "rate_fix_sub": 2,
          "rate_fix_disp": 2,
          "unit_group_id": "UNIT_GROUP_067"
        },
        {
          "priority": 4,
          "add_exp_speed": 110,
          "rate_fix_sub": 1,
          "rate_fix_disp": 3,
          "unit_group_id": "UNIT_GROUP_068"
        }
      ]
    },
    {
      "iname": "BONUS_018",
      "bonuses": [
        {
          "priority": 1,
          "add_exp_speed": 150,
          "rate_fix_sub": 10,
          "rate_fix_disp": 0,
          "unit_group_id": "UNIT_GROUP_069"
        },
        {
          "priority": 2,
          "add_exp_speed": 130,
          "rate_fix_sub": 5,
          "rate_fix_disp": 1,
          "unit_group_id": "UNIT_GROUP_070"
        },
        {
          "priority": 3,
          "add_exp_speed": 120,
          "rate_fix_sub": 2,
          "rate_fix_disp": 2,
          "unit_group_id": "UNIT_GROUP_071"
        },
        {
          "priority": 4,
          "add_exp_speed": 110,
          "rate_fix_sub": 1,
          "rate_fix_disp": 3,
          "unit_group_id": "UNIT_GROUP_072"
        }
      ]
    },
    {
      "iname": "BONUS_019",
      "bonuses": [
        {
          "priority": 1,
          "add_exp_speed": 150,
          "rate_fix_sub": 10,
          "rate_fix_disp": 0,
          "unit_group_id": "UNIT_GROUP_073"
        },
        {
          "priority": 2,
          "add_exp_speed": 130,
          "rate_fix_sub": 5,
          "rate_fix_disp": 1,
          "unit_group_id": "UNIT_GROUP_074"
        },
        {
          "priority": 3,
          "add_exp_speed": 120,
          "rate_fix_sub": 2,
          "rate_fix_disp": 2,
          "unit_group_id": "UNIT_GROUP_075"
        },
        {
          "priority": 4,
          "add_exp_speed": 110,
          "rate_fix_sub": 1,
          "rate_fix_disp": 3,
          "unit_group_id": "UNIT_GROUP_076"
        }
      ]
    },
    {
      "iname": "BONUS_020",
      "bonuses": [
        {
          "priority": 1,
          "add_exp_speed": 150,
          "rate_fix_sub": 10,
          "rate_fix_disp": 0,
          "unit_group_id": "UNIT_GROUP_077"
        },
        {
          "priority": 2,
          "add_exp_speed": 130,
          "rate_fix_sub": 5,
          "rate_fix_disp": 1,
          "unit_group_id": "UNIT_GROUP_078"
        },
        {
          "priority": 3,
          "add_exp_speed": 120,
          "rate_fix_sub": 2,
          "rate_fix_disp": 2,
          "unit_group_id": "UNIT_GROUP_079"
        },
        {
          "priority": 4,
          "add_exp_speed": 110,
          "rate_fix_sub": 1,
          "rate_fix_disp": 3,
          "unit_group_id": "UNIT_GROUP_080"
        }
      ]
    }
  ]
}