{
  "items": [
    {
      "iname": "PERIOD_01",
      "begin_at": "2019/04/25",
      "end_at": "2019/11/22 14:59:59",
      "bonus_set_id": "BONUS_01"
    },
    {
      "iname": "PERIOD_02",
      "begin_at": "2019/11/22 15:00:00",
      "end_at": "2019/11/30 23:59:59",
      "bonus_set_id": "BONUS_02"
    },
    {
      "iname": "PERIOD_003",
      "begin_at": "2019/12/01",
      "end_at": "2019/12/09 14:59:59",
      "bonus_set_id": "BONUS_003"
    },
    {
      "iname": "PERIOD_004",
      "begin_at": "2019/12/09 15:00:00",
      "end_at": "2019/12/18 14:59:59",
      "bonus_set_id": "BONUS_004"
    },
    {
      "iname": "PERIOD_005",
      "begin_at": "2019/12/18 15:00:00",
      "end_at": "2019/12/26 18:14:59",
      "bonus_set_id": "BONUS_005"
    },
    {
      "iname": "PERIOD_006",
      "begin_at": "2019/12/26 18:15:00",
      "end_at": "2019/12/31 23:59:59",
      "bonus_set_id": "BONUS_006"
    },
    {
      "iname": "PERIOD_007",
      "begin_at": "2020/01/01",
      "end_at": "2020/01/08 14:59:59",
      "bonus_set_id": "BONUS_007"
    },
    {
      "iname": "PERIOD_008",
      "begin_at": "2020/01/08 15:00:00",
      "end_at": "2020/01/15 14:59:59",
      "bonus_set_id": "BONUS_008"
    },
    {
      "iname": "PERIOD_009",
      "begin_at": "2020/01/15 15:00:00",
      "end_at": "2020/01/22 14:59:59",
      "bonus_set_id": "BONUS_009"
    },
    {
      "iname": "PERIOD_010",
      "begin_at": "2020/01/22 15:00:00",
      "end_at": "2020/01/31 23:59:59",
      "bonus_set_id": "BONUS_010"
    },
    {
      "iname": "PERIOD_011",
      "begin_at": "2020/02/01",
      "end_at": "2020/02/07 11:59:59",
      "bonus_set_id": "BONUS_011"
    },
    {
      "iname": "PERIOD_012",
      "begin_at": "2020/02/07 12:00:00",
      "end_at": "2020/02/14 14:59:59",
      "bonus_set_id": "BONUS_012"
    },
    {
      "iname": "PERIOD_013",
      "begin_at": "2020/02/14 15:00:00",
      "end_at": "2020/02/21 10:59:59",
      "bonus_set_id": "BONUS_013"
    },
    {
      "iname": "PERIOD_014",
      "begin_at": "2020/02/21 11:00:00",
      "end_at": "2020/02/29 23:59:59",
      "bonus_set_id": "BONUS_014"
    },
    {
      "iname": "PERIOD_015",
      "begin_at": "2020/03/01",
      "end_at": "2020/03/09 14:59:59",
      "bonus_set_id": "BONUS_015"
    },
    {
      "iname": "PERIOD_016",
      "begin_at": "2020/03/09 15:00:00",
      "end_at": "2020/03/17 10:59:59",
      "bonus_set_id": "BONUS_016"
    },
    {
      "iname": "PERIOD_017",
      "begin_at": "2020/03/17 11:00:00",
      "end_at": "2020/03/25 14:59:59",
      "bonus_set_id": "BONUS_017"
    },
    {
      "iname": "PERIOD_018",
      "begin_at": "2020/03/25 15:00:00",
      "end_at": "2020/03/31 23:59:59",
      "bonus_set_id": "BONUS_018"
    },
    {
      "iname": "PERIOD_019",
      "begin_at": "2020/04/01",
      "end_at": "2020/04/08 14:59:59",
      "bonus_set_id": "BONUS_019"
    },
    {
      "iname": "PERIOD_020",
      "begin_at": "2020/04/08 15:00:00",
      "end_at": "2028/10/01 5:00:00",
      "bonus_set_id": "BONUS_020"
    }
  ]
}