{
  "items": [
    {
      "iname": "AF_LOT_WEA",
      "lot": [
        {
          "grow1": "ARTIFACT_50",
          "gwait1": 10
        }
      ]
    },
    {
      "iname": "AF_LOT_ARM",
      "lot": [
        {
          "grow1": "ARTIFACT_50",
          "gwait1": 10
        }
      ]
    },
    {
      "iname": "AF_LOT_ACC",
      "lot": [
        {
          "grow1": "ARTIFACT_50",
          "gwait1": 10
        }
      ]
    },
    {
      "iname": "AF_LOT_TRUST",
      "lot": [
        {
          "grow1": "ARTIFACT_TRUST",
          "gwait1": 100
        }
      ]
    },
    {
      "iname": "AF_LOT_50",
      "lot": [
        {
          "grow1": "ARTIFACT_50",
          "gwait1": 100
        }
      ]
    },
    {
      "iname": "AF_LOT_LW_SWO_001",
      "lot": [
        {
          "grow1": "AFGROW_VIT_50",
          "gwait1": 50,
          "grow2": "AFGROW_ASS_50",
          "gwait2": 50,
          "grow3": "AFGROW_MAG_50",
          "gwait3": 50
        }
      ]
    },
    {
      "iname": "AF_LOT_LW_SWO_002",
      "lot": [
        {
          "grow1": "AFGROW_VIT_50",
          "gwait1": 50,
          "grow2": "AFGROW_ASS_50",
          "gwait2": 50,
          "grow3": "AFGROW_AIM_50",
          "gwait3": 50
        }
      ]
    },
    {
      "iname": "AF_LOT_LW_SWO_003",
      "lot": [
        {
          "grow1": "AFGROW_ASS_50",
          "gwait1": 50,
          "grow2": "AFGROW_MAG_50",
          "gwait2": 50,
          "grow3": "AFGROW_AIM_50",
          "gwait3": 50
        }
      ]
    },
    {
      "iname": "AF_LOT_LW_SWO_004",
      "lot": [
        {
          "grow1": "AFGROW_VIT_50",
          "gwait1": 50,
          "grow2": "AFGROW_ASS_50",
          "gwait2": 50,
          "grow3": "AFGROW_CRI_50",
          "gwait3": 50
        }
      ]
    },
    {
      "iname": "AF_LOT_LW_SWO_005",
      "lot": [
        {
          "grow1": "AFGROW_VIT_50",
          "gwait1": 50,
          "grow2": "AFGROW_ASS_50",
          "gwait2": 50,
          "grow3": "AFGROW_CRI_50",
          "gwait3": 50
        }
      ]
    },
    {
      "iname": "AF_LOT_LW_SWO_006",
      "lot": [
        {
          "grow1": "AFGROW_VIT_50",
          "gwait1": 50,
          "grow2": "AFGROW_ASS_50",
          "gwait2": 50,
          "grow3": "AFGROW_CRI_50",
          "gwait3": 50
        }
      ]
    },
    {
      "iname": "AF_LOT_LW_BSW_001",
      "lot": [
        {
          "grow1": "AFGROW_ASS_50",
          "gwait1": 50,
          "grow2": "AFGROW_MAG_50",
          "gwait2": 50,
          "grow3": "AFGROW_CRI_50",
          "gwait3": 50
        }
      ]
    },
    {
      "iname": "AF_LOT_LW_BSW_002",
      "lot": [
        {
          "grow1": "AFGROW_ASS_50",
          "gwait1": 50,
          "grow2": "AFGROW_AIM_50",
          "gwait2": 50,
          "grow3": "AFGROW_CRI_50",
          "gwait3": 50
        }
      ]
    },
    {
      "iname": "AF_LOT_LW_BSW_003",
      "lot": [
        {
          "grow1": "AFGROW_ASS_50",
          "gwait1": 50,
          "grow2": "AFGROW_AIM_50",
          "gwait2": 50,
          "grow3": "AFGROW_CRI_50",
          "gwait3": 50
        }
      ]
    },
    {
      "iname": "AF_LOT_LW_BSW_004",
      "lot": [
        {
          "grow1": "AFGROW_VIT_50",
          "gwait1": 50,
          "grow2": "AFGROW_ASS_50",
          "gwait2": 50
        }
      ]
    },
    {
      "iname": "AF_LOT_LW_BSW_011",
      "lot": [
        {
          "grow1": "AFGROW_MAG_50",
          "gwait1": 50
        }
      ]
    },
    {
      "iname": "AF_LOT_LW_KAT_001",
      "lot": [
        {
          "grow1": "AFGROW_ASS_50",
          "gwait1": 50,
          "grow2": "AFGROW_AIM_50",
          "gwait2": 50,
          "grow3": "AFGROW_CRI_50",
          "gwait3": 50
        }
      ]
    },
    {
      "iname": "AF_LOT_LW_KAT_002",
      "lot": [
        {
          "grow1": "AFGROW_ASS_50",
          "gwait1": 50,
          "grow2": "AFGROW_DOD_50",
          "gwait2": 50,
          "grow3": "AFGROW_CRI_50",
          "gwait3": 50
        }
      ]
    },
    {
      "iname": "AF_LOT_LW_KAT_003",
      "lot": [
        {
          "grow1": "AFGROW_ASS_50",
          "gwait1": 50,
          "grow2": "AFGROW_AIM_50",
          "gwait2": 50,
          "grow3": "AFGROW_CRI_50",
          "gwait3": 50
        }
      ]
    },
    {
      "iname": "AF_LOT_LW_FIS_001",
      "lot": [
        {
          "grow1": "AFGROW_VIT_50",
          "gwait1": 50,
          "grow2": "AFGROW_ASS_50",
          "gwait2": 50,
          "grow3": "AFGROW_CRI_50",
          "gwait3": 50
        }
      ]
    },
    {
      "iname": "AF_LOT_LW_FIS_002",
      "lot": [
        {
          "grow1": "AFGROW_ASS_50",
          "gwait1": 50,
          "grow2": "AFGROW_AIM_50",
          "gwait2": 50,
          "grow3": "AFGROW_CRI_50",
          "gwait3": 50
        }
      ]
    },
    {
      "iname": "AF_LOT_LW_FIS_003",
      "lot": [
        {
          "grow1": "AFGROW_VIT_50",
          "gwait1": 50,
          "grow2": "AFGROW_ASS_50",
          "gwait2": 50,
          "grow3": "AFGROW_AIM_50",
          "gwait3": 50
        }
      ]
    },
    {
      "iname": "AF_LOT_LW_SPE_001",
      "lot": [
        {
          "grow1": "AFGROW_VIT_50",
          "gwait1": 50,
          "grow2": "AFGROW_ASS_50",
          "gwait2": 50,
          "grow3": "AFGROW_CRI_50",
          "gwait3": 50
        }
      ]
    },
    {
      "iname": "AF_LOT_LW_SPE_002",
      "lot": [
        {
          "grow1": "AFGROW_ASS_50",
          "gwait1": 50,
          "grow2": "AFGROW_AIM_50",
          "gwait2": 50,
          "grow3": "AFGROW_CRI_50",
          "gwait3": 50
        }
      ]
    },
    {
      "iname": "AF_LOT_LW_SPE_003",
      "lot": [
        {
          "grow1": "AFGROW_ASS_50",
          "gwait1": 50,
          "grow2": "AFGROW_AIM_50",
          "gwait2": 50,
          "grow3": "AFGROW_CRI_50",
          "gwait3": 50
        }
      ]
    },
    {
      "iname": "AF_LOT_LW_SPE_004",
      "lot": [
        {
          "grow1": "AFGROW_ASS_50",
          "gwait1": 50,
          "grow2": "AFGROW_AIM_50",
          "gwait2": 50,
          "grow3": "AFGROW_CRI_50",
          "gwait3": 50
        }
      ]
    },
    {
      "iname": "AF_LOT_LW_SPE_006",
      "lot": [
        {
          "grow1": "AFGROW_ASS_50",
          "gwait1": 50,
          "grow2": "AFGROW_AIM_50",
          "gwait2": 50,
          "grow3": "AFGROW_CRI_50",
          "gwait3": 50
        }
      ]
    },
    {
      "iname": "AF_LOT_LW_DAG_001",
      "lot": [
        {
          "grow1": "AFGROW_VIT_50",
          "gwait1": 50,
          "grow2": "AFGROW_ASS_50",
          "gwait2": 50,
          "grow3": "AFGROW_AIM_50",
          "gwait3": 50
        }
      ]
    },
    {
      "iname": "AF_LOT_LW_DAG_002",
      "lot": [
        {
          "grow1": "AFGROW_ASS_50",
          "gwait1": 50,
          "grow2": "AFGROW_AIM_50",
          "gwait2": 50,
          "grow3": "AFGROW_CRI_50",
          "gwait3": 50
        }
      ]
    },
    {
      "iname": "AF_LOT_LW_DAG_004",
      "lot": [
        {
          "grow1": "AFGROW_ASS_50",
          "gwait1": 50,
          "grow2": "AFGROW_AIM_50",
          "gwait2": 50,
          "grow3": "AFGROW_DOD_50",
          "gwait3": 50
        }
      ]
    },
    {
      "iname": "AF_LOT_LW_DAG_006",
      "lot": [
        {
          "grow1": "AFGROW_ASS_50",
          "gwait1": 50,
          "grow2": "AFGROW_AIM_50",
          "gwait2": 50,
          "grow3": "AFGROW_CRI_50",
          "gwait3": 50
        }
      ]
    },
    {
      "iname": "AF_LOT_LW_NKN_001",
      "lot": [
        {
          "grow1": "AFGROW_ASS_50",
          "gwait1": 50,
          "grow2": "AFGROW_AIM_50",
          "gwait2": 50,
          "grow3": "AFGROW_CRI_50",
          "gwait3": 50
        }
      ]
    },
    {
      "iname": "AF_LOT_LW_NKN_002",
      "lot": [
        {
          "grow1": "AFGROW_VIT_50",
          "gwait1": 50,
          "grow2": "AFGROW_ASS_50",
          "gwait2": 50,
          "grow3": "AFGROW_CRI_50",
          "gwait3": 50
        }
      ]
    },
    {
      "iname": "AF_LOT_LW_NKN_003",
      "lot": [
        {
          "grow1": "AFGROW_VIT_50",
          "gwait1": 50,
          "grow2": "AFGROW_ASS_50",
          "gwait2": 50,
          "grow3": "AFGROW_CRI_50",
          "gwait3": 50
        }
      ]
    },
    {
      "iname": "AF_LOT_LW_BOW_001",
      "lot": [
        {
          "grow1": "AFGROW_VIT_50",
          "gwait1": 50,
          "grow2": "AFGROW_ASS_50",
          "gwait2": 50,
          "grow3": "AFGROW_CRI_50",
          "gwait3": 50
        }
      ]
    },
    {
      "iname": "AF_LOT_LW_BOW_002",
      "lot": [
        {
          "grow1": "AFGROW_ASS_50",
          "gwait1": 50,
          "grow2": "AFGROW_AIM_50",
          "gwait2": 50,
          "grow3": "AFGROW_CRI_50",
          "gwait3": 50
        }
      ]
    },
    {
      "iname": "AF_LOT_LW_BOW_003",
      "lot": [
        {
          "grow1": "AFGROW_ASS_50",
          "gwait1": 50,
          "grow2": "AFGROW_AIM_50",
          "gwait2": 50,
          "grow3": "AFGROW_CRI_50",
          "gwait3": 50
        }
      ]
    },
    {
      "iname": "AF_LOT_LW_GUN_001",
      "lot": [
        {
          "grow1": "AFGROW_VIT_50",
          "gwait1": 50,
          "grow2": "AFGROW_ASS_50",
          "gwait2": 50,
          "grow3": "AFGROW_CRI_50",
          "gwait3": 50
        }
      ]
    },
    {
      "iname": "AF_LOT_LW_GUN_002",
      "lot": [
        {
          "grow1": "AFGROW_VIT_50",
          "gwait1": 50,
          "grow2": "AFGROW_ASS_50",
          "gwait2": 50,
          "grow3": "AFGROW_AIM_50",
          "gwait3": 50
        }
      ]
    },
    {
      "iname": "AF_LOT_LW_GUN_003",
      "lot": [
        {
          "grow1": "AFGROW_ASS_50",
          "gwait1": 50,
          "grow2": "AFGROW_AIM_50",
          "gwait2": 50,
          "grow3": "AFGROW_CRI_50",
          "gwait3": 50
        }
      ]
    },
    {
      "iname": "AF_LOT_LW_ROD_002",
      "lot": [
        {
          "grow1": "AFGROW_VIT_50",
          "gwait1": 50,
          "grow2": "AFGROW_ASS_50",
          "gwait2": 50,
          "grow3": "AFGROW_MAG_50",
          "gwait3": 50
        }
      ]
    },
    {
      "iname": "AF_LOT_LW_ROD_004",
      "lot": [
        {
          "grow1": "AFGROW_VIT_50",
          "gwait1": 50,
          "grow2": "AFGROW_MAG_50",
          "gwait2": 50,
          "grow3": "AFGROW_AIM_50",
          "gwait3": 50
        }
      ]
    },
    {
      "iname": "AF_LOT_LW_ROD_005",
      "lot": [
        {
          "grow1": "AFGROW_MAG_50",
          "gwait1": 50,
          "grow2": "AFGROW_AIM_50",
          "gwait2": 50,
          "grow3": "AFGROW_DOD_50",
          "gwait3": 50
        }
      ]
    },
    {
      "iname": "AF_LOT_LW_MAC_001",
      "lot": [
        {
          "grow1": "AFGROW_ASS_50",
          "gwait1": 50,
          "grow2": "AFGROW_MAG_50",
          "gwait2": 50,
          "grow3": "AFGROW_AIM_50",
          "gwait3": 50
        }
      ]
    },
    {
      "iname": "AF_LOT_LW_MAC_002",
      "lot": [
        {
          "grow1": "AFGROW_ASS_50",
          "gwait1": 50,
          "grow2": "AFGROW_MAG_50",
          "gwait2": 50,
          "grow3": "AFGROW_DOD_50",
          "gwait3": 50
        }
      ]
    },
    {
      "iname": "AF_LOT_LW_MAC_003",
      "lot": [
        {
          "grow1": "AFGROW_VIT_50",
          "gwait1": 50,
          "grow2": "AFGROW_ASS_50",
          "gwait2": 50,
          "grow3": "AFGROW_MAG_50",
          "gwait3": 50
        }
      ]
    },
    {
      "iname": "AF_LOT_LW_ARM_002",
      "lot": [
        {
          "grow1": "AFGROW_VIT_50",
          "gwait1": 50,
          "grow2": "AFGROW_SLD_50",
          "gwait2": 50
        }
      ]
    },
    {
      "iname": "AF_LOT_LW_ARM_003",
      "lot": [
        {
          "grow1": "AFGROW_VIT_50",
          "gwait1": 50,
          "grow2": "AFGROW_DOD_50",
          "gwait2": 50,
          "grow3": "AFGROW_SLD_50",
          "gwait3": 50
        }
      ]
    },
    {
      "iname": "AF_LOT_LW_ARM_004",
      "lot": [
        {
          "grow1": "AFGROW_VIT_50",
          "gwait1": 50,
          "grow2": "AFGROW_SLD_50",
          "gwait2": 50,
          "grow3": "AFGROW_BAR_50",
          "gwait3": 50
        }
      ]
    },
    {
      "iname": "AF_LOT_FF1_ARM_002",
      "lot": [
        {
          "grow1": "AFGROW_VIT_50",
          "gwait1": 50,
          "grow2": "AFGROW_SLD_50",
          "gwait2": 50,
          "grow3": "AFGROW_BAR_50",
          "gwait3": 50
        }
      ]
    },
    {
      "iname": "AF_LOT_LW_HLM_002",
      "lot": [
        {
          "grow1": "AFGROW_VIT_50",
          "gwait1": 50,
          "grow2": "AFGROW_SLD_50",
          "gwait2": 50
        }
      ]
    },
    {
      "iname": "AF_LOT_LW_HLM_003",
      "lot": [
        {
          "grow1": "AFGROW_VIT_50",
          "gwait1": 50,
          "grow2": "AFGROW_DOD_50",
          "gwait2": 50,
          "grow3": "AFGROW_SLD_50",
          "gwait3": 50
        }
      ]
    },
    {
      "iname": "AF_LOT_LW_HLM_004",
      "lot": [
        {
          "grow1": "AFGROW_VIT_50",
          "gwait1": 50,
          "grow2": "AFGROW_SLD_50",
          "gwait2": 50,
          "grow3": "AFGROW_BAR_50",
          "gwait3": 50
        }
      ]
    },
    {
      "iname": "AF_LOT_LW_HAT_002",
      "lot": [
        {
          "grow1": "AFGROW_DOD_50",
          "gwait1": 50,
          "grow2": "AFGROW_BAR_50",
          "gwait2": 50
        }
      ]
    },
    {
      "iname": "AF_LOT_LW_HAT_003",
      "lot": [
        {
          "grow1": "AFGROW_VIT_50",
          "gwait1": 50,
          "grow2": "AFGROW_DOD_50",
          "gwait2": 50,
          "grow3": "AFGROW_BAR_50",
          "gwait3": 50
        }
      ]
    },
    {
      "iname": "AF_LOT_LW_HAT_004",
      "lot": [
        {
          "grow1": "AFGROW_VIT_50",
          "gwait1": 50,
          "grow2": "AFGROW_DOD_50",
          "gwait2": 50,
          "grow3": "AFGROW_BAR_50",
          "gwait3": 50
        }
      ]
    },
    {
      "iname": "AF_LOT_LW_CLT_002",
      "lot": [
        {
          "grow1": "AFGROW_VIT_50",
          "gwait1": 50,
          "grow2": "AFGROW_SLD_50",
          "gwait2": 50,
          "grow3": "AFGROW_BAR_50",
          "gwait3": 50
        }
      ]
    },
    {
      "iname": "AF_LOT_LW_CLT_003",
      "lot": [
        {
          "grow1": "AFGROW_VIT_50",
          "gwait1": 50,
          "grow2": "AFGROW_SLD_50",
          "gwait2": 50,
          "grow3": "AFGROW_BAR_50",
          "gwait3": 50
        }
      ]
    },
    {
      "iname": "AF_LOT_LW_CLT_004",
      "lot": [
        {
          "grow1": "AFGROW_VIT_50",
          "gwait1": 50,
          "grow2": "AFGROW_SLD_50",
          "gwait2": 50,
          "grow3": "AFGROW_BAR_50",
          "gwait3": 50
        }
      ]
    },
    {
      "iname": "AF_LOT_LW_CLT_005",
      "lot": [
        {
          "grow1": "AFGROW_VIT_50",
          "gwait1": 50,
          "grow2": "AFGROW_SLD_50",
          "gwait2": 50,
          "grow3": "AFGROW_BAR_50",
          "gwait3": 50
        }
      ]
    },
    {
      "iname": "AF_LOT_LW_RNG_002",
      "lot": [
        {
          "grow1": "AFGROW_VIT_50",
          "gwait1": 50,
          "grow2": "AFGROW_AIM_50",
          "gwait2": 50,
          "grow3": "AFGROW_CRI_50",
          "gwait3": 50
        }
      ]
    },
    {
      "iname": "AF_LOT_LW_RNG_003",
      "lot": [
        {
          "grow1": "AFGROW_VIT_50",
          "gwait1": 50,
          "grow2": "AFGROW_AIM_50",
          "gwait2": 50,
          "grow3": "AFGROW_CRI_50",
          "gwait3": 50
        }
      ]
    },
    {
      "iname": "AF_LOT_LW_RNG_004",
      "lot": [
        {
          "grow1": "AFGROW_VIT_50",
          "gwait1": 50,
          "grow2": "AFGROW_AIM_50",
          "gwait2": 50,
          "grow3": "AFGROW_CRI_50",
          "gwait3": 50
        }
      ]
    },
    {
      "iname": "AF_SWO_FF14_TNCT",
      "lot": [
        {
          "grow1": "AFGROW_ASS_50",
          "gwait1": 50,
          "grow2": "AFGROW_MAG_50",
          "gwait2": 50,
          "grow3": "AFGROW_AIM_50",
          "gwait3": 50
        }
      ]
    },
    {
      "iname": "AF_LOT_LW_ROD_007",
      "lot": [
        {
          "grow1": "AFGROW_VIT_50",
          "gwait1": 50,
          "grow2": "AFGROW_MAG_50",
          "gwait2": 50,
          "grow3": "AFGROW_AIM_50",
          "gwait3": 50
        }
      ]
    },
    {
      "iname": "AF_LOT_LW_ARM_005",
      "lot": [
        {
          "grow1": "AFGROW_VIT_50",
          "gwait1": 50,
          "grow2": "AFGROW_SLD_50",
          "gwait2": 50,
          "grow3": "AFGROW_BAR_50",
          "gwait3": 50
        }
      ]
    },
    {
      "iname": "AF_LOT_LW_FTW_001",
      "lot": [
        {
          "grow1": "AFGROW_VIT_50",
          "gwait1": 50,
          "grow2": "AFGROW_DOD_50",
          "gwait2": 50,
          "grow3": "AFGROW_CRI_50",
          "gwait3": 50
        }
      ]
    },
    {
      "iname": "AF_LOT_LW_AXE_001",
      "lot": [
        {
          "grow1": "AFGROW_ASS_50",
          "gwait1": 50,
          "grow2": "AFGROW_AIM_50",
          "gwait2": 50,
          "grow3": "AFGROW_CRI_50",
          "gwait3": 50
        }
      ]
    },
    {
      "iname": "AF_LOT_LW_AXE_002",
      "lot": [
        {
          "grow1": "AFGROW_ASS_50",
          "gwait1": 50,
          "grow2": "AFGROW_MAG_50",
          "gwait2": 50,
          "grow3": "AFGROW_CRI_50",
          "gwait3": 50
        }
      ]
    },
    {
      "iname": "AF_LOT_LW_AXE_003",
      "lot": [
        {
          "grow1": "AFGROW_VIT_50",
          "gwait1": 50,
          "grow2": "AFGROW_ASS_50",
          "gwait2": 50,
          "grow3": "AFGROW_CRI_50",
          "gwait3": 50
        }
      ]
    },
    {
      "iname": "AF_FFT_SWO_001",
      "lot": [
        {
          "grow1": "AFGROW_ASS_50",
          "gwait1": 50,
          "grow2": "AFGROW_MAG_50",
          "gwait2": 50,
          "grow3": "AFGROW_VIT_50",
          "gwait3": 50
        }
      ]
    },
    {
      "iname": "AF_LOT_LW_RNG_005",
      "lot": [
        {
          "grow1": "AFGROW_VIT_50",
          "gwait1": 50,
          "grow2": "AFGROW_AIM_50",
          "gwait2": 50,
          "grow3": "AFGROW_CRI_50",
          "gwait3": 50
        }
      ]
    }
  ]
}