{
  "info": {
    "angle_override": true,
    "angle": 199
  },
  "party": [
    {
      "name": "id:1",
      "x": 0,
      "y": 10,
      "dir": 3,
      "ct_calc": 0,
      "ct_val": 0,
      "brave": 0,
      "faith": 0,
      "fvoff": 0,
      "ai": {
        "iname": "",
        "wait_e": 0,
        "search": 0,
        "sensing": 0
      },
      "chgTexSetting": {
        "hp_tbl": []
      },
      "entry_cond": {
        "timing": 0,
        "expr": "",
        "list": []
      },
      "wait_m": 0,
      "parent": ""
    },
    {
      "name": "id:2",
      "x": 0,
      "y": 8,
      "dir": 3,
      "ct_calc": 0,
      "ct_val": 0,
      "brave": 0,
      "faith": 0,
      "fvoff": 0,
      "ai": {
        "iname": "",
        "wait_e": 0,
        "search": 0,
        "sensing": 0
      },
      "chgTexSetting": {
        "hp_tbl": []
      },
      "entry_cond": {
        "timing": 0,
        "expr": "",
        "list": []
      },
      "wait_m": 0,
      "parent": ""
    },
    {
      "name": "id:3",
      "x": 0,
      "y": 9,
      "dir": 3,
      "ct_calc": 0,
      "ct_val": 0,
      "brave": 0,
      "faith": 0,
      "fvoff": 0,
      "ai": {
        "iname": "",
        "wait_e": 0,
        "search": 0,
        "sensing": 0
      },
      "chgTexSetting": {
        "hp_tbl": []
      },
      "entry_cond": {
        "timing": 0,
        "expr": "",
        "list": []
      },
      "wait_m": 0,
      "parent": ""
    },
    {
      "name": "id:4",
      "x": 1,
      "y": 10,
      "dir": 3,
      "ct_calc": 0,
      "ct_val": 0,
      "brave": 0,
      "faith": 0,
      "fvoff": 0,
      "ai": {
        "iname": "",
        "wait_e": 0,
        "search": 0,
        "sensing": 0
      },
      "chgTexSetting": {
        "hp_tbl": []
      },
      "entry_cond": {
        "timing": 0,
        "expr": "",
        "list": []
      },
      "wait_m": 0,
      "parent": ""
    },
    {
      "name": "id:5",
      "x": 2,
      "y": 10,
      "dir": 3,
      "ct_calc": 0,
      "ct_val": 0,
      "brave": 0,
      "faith": 0,
      "fvoff": 0,
      "ai": {
        "iname": "",
        "wait_e": 0,
        "search": 0,
        "sensing": 0
      },
      "chgTexSetting": {
        "hp_tbl": []
      },
      "entry_cond": {
        "timing": 0,
        "expr": "",
        "list": []
      },
      "wait_m": 0,
      "parent": ""
    },
    {
      "name": "id:6",
      "x": 2,
      "y": 8,
      "dir": 3,
      "ct_calc": 0,
      "ct_val": 0,
      "brave": 0,
      "faith": 0,
      "fvoff": 0,
      "ai": {
        "iname": "",
        "wait_e": 0,
        "search": 0,
        "sensing": 0
      },
      "chgTexSetting": {
        "hp_tbl": []
      },
      "entry_cond": {
        "timing": 0,
        "expr": "",
        "list": []
      },
      "wait_m": 0,
      "parent": ""
    },
    {
      "name": "",
      "x": 2,
      "y": 9,
      "dir": 3,
      "ct_calc": 0,
      "ct_val": 0,
      "brave": 0,
      "faith": 0,
      "fvoff": 0,
      "ai": {
        "iname": "",
        "wait_e": 0,
        "search": 3,
        "sensing": 0
      },
      "chgTexSetting": {
        "hp_tbl": []
      },
      "entry_cond": {
        "timing": 0,
        "expr": "",
        "list": []
      },
      "wait_m": 0,
      "parent": ""
    },
    {
      "name": "",
      "x": 1,
      "y": 9,
      "dir": 3,
      "ct_calc": 0,
      "ct_val": 0,
      "brave": 0,
      "faith": 0,
      "fvoff": 0,
      "ai": {
        "iname": "",
        "wait_e": 0,
        "search": 3,
        "sensing": 0
      },
      "chgTexSetting": {
        "hp_tbl": []
      },
      "entry_cond": {
        "timing": 0,
        "expr": "",
        "list": []
      },
      "wait_m": 0,
      "parent": ""
    }
  ],
  "enemy": [
    {
      "name": "",
      "x": 1,
      "y": 0,
      "dir": 1,
      "ct_calc": 0,
      "ct_val": 500,
      "brave": 0,
      "faith": 0,
      "fvoff": 0,
      "ai": {
        "iname": "AI_ENEMY_ATK_LV1",
        "wait_e": -1,
        "search": 10,
        "sensing": 0
      },
      "chgTexSetting": {
        "hp_tbl": []
      },
      "entry_cond": {
        "timing": 0,
        "expr": "",
        "list": [
          {
            "self": {
              "type": 7,
              "json": "{\"ope\":1,\"tag\":\"C\",\"hp\":50}"
            },
            "childs": []
          }
        ]
      },
      "wait_m": 0,
      "parent": "",
      "enemy_id": 11,
      "iname": "UN_LW_E_ZUUU",
      "side": 1,
      "dead": 0,
      "lv": 25,
      "rare": 0,
      "awake": 1,
      "rank": 0,
      "elem": 3,
      "search": 0,
      "ctrl": 0,
      "nottar": 0,
      "fixdir": 0,
      "drop": "QE_EV_01_06",
      "crystal": "CRYSTAL_00",
      "steal": "",
      "stealValue": 100,
      "nrmSkl": {
        "iname": "",
        "rank": 0,
        "rate": 0
      },
      "skills": [
        {
          "iname": "SK_BTL_JOB_DRG_1_15_U",
          "rank": 4,
          "rate": 100
        },
        {
          "iname": "SK_BTL_JUMP_1-20_U",
          "rank": 3,
          "rate": 100
        },
        {
          "iname": "SK_ZUUU_M_01",
          "rank": 10,
          "rate": 100
        },
        {
          "iname": "SK_ZUUU_M_02",
          "rank": 10,
          "rate": 100
        },
        {
          "iname": "SK_ZUUU_M_03",
          "rank": 10,
          "rate": 100
        }
      ],
      "fskl": "",
      "weight": 0,
      "tag": 0,
      "raid_type": 0,
      "dispOrder": 0,
      "referenceGObjName": ""
    },
    {
      "name": "A",
      "x": 4,
      "y": 2,
      "dir": 1,
      "ct_calc": 0,
      "ct_val": 0,
      "brave": 0,
      "faith": 0,
      "fvoff": 0,
      "ai": {
        "iname": "AI_ENEMY_ATK_LV3",
        "wait_e": 0,
        "search": 5,
        "sensing": 0
      },
      "chgTexSetting": {
        "hp_tbl": []
      },
      "entry_cond": {
        "timing": 0,
        "expr": "",
        "list": []
      },
      "wait_m": 0,
      "parent": "",
      "enemy_id": 12,
      "iname": "UN_LW_E_ELEM_05",
      "side": 1,
      "dead": 0,
      "lv": 20,
      "rare": 0,
      "awake": 1,
      "rank": 0,
      "elem": 3,
      "search": 0,
      "ctrl": 0,
      "nottar": 0,
      "fixdir": 0,
      "drop": "QE_EV_01_06",
      "crystal": "CRYSTAL_00",
      "steal": "",
      "stealValue": 100,
      "nrmSkl": {
        "iname": "",
        "rank": 0,
        "rate": 0
      },
      "skills": [
        {
          "iname": "SK_ELEM_M_05",
          "rank": 5,
          "rate": 100
        },
        {
          "iname": "SK_ELEM_M_06",
          "rank": 5,
          "rate": 100
        },
        {
          "iname": "SK_BTL_JOB_GRM_1_15_U",
          "rank": 4,
          "rate": 100
        }
      ],
      "fskl": "",
      "weight": 0,
      "tag": 0,
      "raid_type": 0,
      "dispOrder": 0,
      "referenceGObjName": ""
    },
    {
      "name": "",
      "x": 8,
      "y": 5,
      "dir": 2,
      "ct_calc": 0,
      "ct_val": 0,
      "brave": 0,
      "faith": 0,
      "fvoff": 0,
      "ai": {
        "iname": "AI_ENEMY_ATK_LV3",
        "wait_e": 0,
        "search": 5,
        "sensing": 0
      },
      "chgTexSetting": {
        "hp_tbl": []
      },
      "entry_cond": {
        "timing": 0,
        "expr": "",
        "list": []
      },
      "wait_m": 0,
      "parent": "A",
      "enemy_id": 13,
      "iname": "UN_LW_E_WOLF",
      "side": 1,
      "dead": 0,
      "lv": 20,
      "rare": 0,
      "awake": 1,
      "rank": 0,
      "elem": 5,
      "search": 0,
      "ctrl": 0,
      "nottar": 0,
      "fixdir": 0,
      "drop": "QE_EV_01_06",
      "crystal": "CRYSTAL_00",
      "steal": "",
      "stealValue": 100,
      "nrmSkl": {
        "iname": "",
        "rank": 0,
        "rate": 0
      },
      "skills": [
        {
          "iname": "SK_BTL_JOB_THI_1_15_U",
          "rank": 4,
          "rate": 100
        },
        {
          "iname": "SK_WOLF_M_01",
          "rank": 10,
          "rate": 100
        },
        {
          "iname": "SK_WOLF_M_03",
          "rank": 10,
          "rate": 100
        }
      ],
      "fskl": "",
      "weight": 0,
      "tag": 0,
      "raid_type": 0,
      "dispOrder": 0,
      "referenceGObjName": ""
    },
    {
      "name": "C",
      "x": 8,
      "y": 3,
      "dir": 2,
      "ct_calc": 0,
      "ct_val": 0,
      "brave": 0,
      "faith": 0,
      "fvoff": 0,
      "ai": {
        "iname": "AI_ENEMY_ATK_LV5",
        "wait_e": 0,
        "search": 4,
        "sensing": 0
      },
      "chgTexSetting": {
        "hp_tbl": []
      },
      "entry_cond": {
        "timing": 0,
        "expr": "",
        "list": []
      },
      "wait_m": 0,
      "parent": "B",
      "enemy_id": 15,
      "iname": "UN_LW_E_WOLF",
      "side": 1,
      "dead": 0,
      "lv": 20,
      "rare": 0,
      "awake": 1,
      "rank": 0,
      "elem": 4,
      "search": 0,
      "ctrl": 0,
      "nottar": 0,
      "fixdir": 0,
      "drop": "QE_EV_01_06",
      "crystal": "CRYSTAL_00",
      "steal": "",
      "stealValue": 100,
      "nrmSkl": {
        "iname": "",
        "rank": 0,
        "rate": 0
      },
      "skills": [
        {
          "iname": "SK_BTL_JOB_THI_1_15_U",
          "rank": 5,
          "rate": 100
        },
        {
          "iname": "SK_WOLF_M_02",
          "rank": 10,
          "rate": 100
        },
        {
          "iname": "SK_BTL_SPD_1-999_U",
          "rank": 5,
          "rate": 100
        },
        {
          "iname": "SK_BTL_DEX_1-999_U",
          "rank": 5,
          "rate": 100
        }
      ],
      "fskl": "",
      "weight": 0,
      "tag": 0,
      "raid_type": 0,
      "dispOrder": 0,
      "referenceGObjName": ""
    },
    {
      "name": "",
      "x": 0,
      "y": 4,
      "dir": 1,
      "ct_calc": 0,
      "ct_val": 0,
      "brave": 0,
      "faith": 0,
      "fvoff": 0,
      "ai": {
        "iname": "AI_ENEMY_ATK_LV1",
        "wait_e": 0,
        "search": 4,
        "sensing": 0
      },
      "chgTexSetting": {
        "hp_tbl": []
      },
      "entry_cond": {
        "timing": 0,
        "expr": "",
        "list": []
      },
      "wait_m": 0,
      "parent": "A",
      "enemy_id": 16,
      "iname": "UN_LW_E_ELEM_05",
      "side": 1,
      "dead": 0,
      "lv": 20,
      "rare": 0,
      "awake": 1,
      "rank": 0,
      "elem": 3,
      "search": 0,
      "ctrl": 0,
      "nottar": 0,
      "fixdir": 0,
      "drop": "QE_EV_01_06",
      "crystal": "CRYSTAL_00",
      "steal": "",
      "stealValue": 100,
      "nrmSkl": {
        "iname": "",
        "rank": 0,
        "rate": 0
      },
      "skills": [
        {
          "iname": "SK_ELEM_M_05",
          "rank": 5,
          "rate": 100
        },
        {
          "iname": "SK_ELEM_M_06",
          "rank": 5,
          "rate": 100
        },
        {
          "iname": "SK_BTL_JOB_GRM_1_15_U",
          "rank": 4,
          "rate": 100
        }
      ],
      "fskl": "",
      "weight": 0,
      "tag": 0,
      "raid_type": 0,
      "dispOrder": 0,
      "referenceGObjName": ""
    },
    {
      "name": "",
      "x": 1,
      "y": 7,
      "dir": 0,
      "ct_calc": 0,
      "ct_val": 0,
      "brave": 0,
      "faith": 0,
      "fvoff": 0,
      "ai": {
        "iname": "",
        "wait_e": 0,
        "search": 3,
        "sensing": 0
      },
      "chgTexSetting": {
        "hp_tbl": []
      },
      "entry_cond": {
        "timing": 0,
        "expr": "",
        "list": []
      },
      "wait_m": 0,
      "parent": "",
      "enemy_id": 17,
      "iname": "UN_GM_TREASURE",
      "side": 1,
      "dead": 0,
      "lv": 1,
      "rare": 0,
      "awake": 1,
      "rank": 0,
      "elem": 0,
      "search": 0,
      "ctrl": 0,
      "nottar": 1,
      "fixdir": 0,
      "drop": "QE_EV_01_06",
      "crystal": "",
      "steal": "",
      "stealValue": 100,
      "nrmSkl": {
        "iname": "",
        "rank": 0,
        "rate": 0
      },
      "skills": [],
      "fskl": "",
      "weight": 0,
      "tag": 0,
      "raid_type": 0,
      "dispOrder": 0,
      "referenceGObjName": ""
    }
  ],
  "arena": [],
  "wcond": {
    "timing": 0,
    "expr": "",
    "list": [
      {
        "self": {
          "type": 1,
          "json": "{\"side\":1,\"tag\":\"\"}"
        },
        "childs": []
      }
    ]
  },
  "lcond": {
    "timing": 0,
    "expr": "",
    "list": [
      {
        "self": {
          "type": 1,
          "json": "{\"side\":0,\"tag\":\"\"}"
        },
        "childs": []
      }
    ]
  },
  "gcond": [],
  "drop_table_list": [
    {
      "type": 1,
      "iname": "CRYSTAL_00",
      "num": 1,
      "drop_list": [
        {
          "drop_data": {
            "type": 99,
            "iname": "UN_GM_CRYSTAL",
            "num": 0,
            "secret": 0
          },
          "weight": 50
        },
        {
          "drop_data": {
            "type": 99,
            "iname": "UN_GM_CRYSTAL_01",
            "num": 1,
            "secret": 0
          },
          "weight": 50
        }
      ]
    },
    {
      "type": 1,
      "iname": "CRYSTAL_00",
      "num": 1,
      "drop_list": [
        {
          "drop_data": {
            "type": 99,
            "iname": "UN_GM_CRYSTAL",
            "num": 0,
            "secret": 0
          },
          "weight": 50
        },
        {
          "drop_data": {
            "type": 99,
            "iname": "UN_GM_CRYSTAL_01",
            "num": 1,
            "secret": 0
          },
          "weight": 50
        }
      ]
    },
    {
      "type": 1,
      "iname": "CRYSTAL_00",
      "num": 1,
      "drop_list": [
        {
          "drop_data": {
            "type": 99,
            "iname": "UN_GM_CRYSTAL",
            "num": 0,
            "secret": 0
          },
          "weight": 50
        },
        {
          "drop_data": {
            "type": 99,
            "iname": "UN_GM_CRYSTAL_01",
            "num": 1,
            "secret": 0
          },
          "weight": 50
        }
      ]
    },
    {
      "type": 1,
      "iname": "CRYSTAL_00",
      "num": 1,
      "drop_list": [
        {
          "drop_data": {
            "type": 99,
            "iname": "UN_GM_CRYSTAL",
            "num": 1,
            "secret": 0
          },
          "weight": 100
        },
        {
          "drop_data": {
            "type": -1,
            "iname": "",
            "num": 0,
            "secret": 0
          },
          "weight": 0
        }
      ]
    },
    {
      "type": 1,
      "iname": "CRYSTAL_00",
      "num": 1,
      "drop_list": [
        {
          "drop_data": {
            "type": 99,
            "iname": "UN_GM_CRYSTAL",
            "num": 0,
            "secret": 0
          },
          "weight": 50
        },
        {
          "drop_data": {
            "type": 99,
            "iname": "UN_GM_CRYSTAL_01",
            "num": 1,
            "secret": 0
          },
          "weight": 50
        }
      ]
    },
    {
      "type": 0,
      "iname": "QE_EV_01_06",
      "num": 1,
      "drop_list": [
        {
          "drop_data": {
            "type": 0,
            "iname": "IT_JB_MM_ALL_2",
            "num": 1,
            "secret": 0
          },
          "weight": 1250
        },
        {
          "drop_data": {
            "type": 0,
            "iname": "IT_JB_MM_ALL_2",
            "num": 2,
            "secret": 0
          },
          "weight": 167
        },
        {
          "drop_data": {
            "type": 0,
            "iname": "IT_JB_SWORD_02",
            "num": 1,
            "secret": 0
          },
          "weight": 1667
        },
        {
          "drop_data": {
            "type": 0,
            "iname": "IT_JB_MM_PLD_2",
            "num": 1,
            "secret": 0
          },
          "weight": 100
        },
        {
          "drop_data": {
            "type": 0,
            "iname": "IT_JB_EM_ICE_2",
            "num": 1,
            "secret": 0
          },
          "weight": 1667
        },
        {
          "drop_data": {
            "type": 0,
            "iname": "IT_JB_IM_ANGEL_2",
            "num": 1,
            "secret": 0
          },
          "weight": 100
        },
        {
          "drop_data": {
            "type": 0,
            "iname": "IT_AF_LW_BSW_001",
            "num": 1,
            "secret": 0
          },
          "weight": 300
        },
        {
          "drop_data": {
            "type": 0,
            "iname": "IT_AF_MAT_SAP_01",
            "num": 1,
            "secret": 0
          },
          "weight": 800
        },
        {
          "drop_data": {
            "type": -1,
            "iname": "",
            "num": 0,
            "secret": 0
          },
          "weight": 617
        },
        {
          "drop_data": {
            "type": 0,
            "iname": "IT_JB_LSWORD_02",
            "num": 1,
            "secret": 0
          },
          "weight": 1667
        },
        {
          "drop_data": {
            "type": 0,
            "iname": "IT_JB_EM_WATER_2",
            "num": 1,
            "secret": 0
          },
          "weight": 1667
        }
      ]
    },
    {
      "type": 1,
      "iname": "CRYSTAL_00",
      "num": 1,
      "drop_list": [
        {
          "drop_data": {
            "type": 99,
            "iname": "UN_GM_CRYSTAL",
            "num": 1,
            "secret": 0
          },
          "weight": 100
        },
        {
          "drop_data": {
            "type": -1,
            "iname": "",
            "num": 0,
            "secret": 0
          },
          "weight": 0
        }
      ]
    }
  ]
}