{
  "info": {
    "angle_override": true,
    "angle": 315
  },
  "party": [
    {
      "name": "id:1",
      "x": 2,
      "y": 4,
      "dir": 3,
      "ct_calc": 0,
      "ct_val": 0,
      "brave": 0,
      "faith": 0,
      "fvoff": 0,
      "ai": {
        "iname": "",
        "wait_e": 0,
        "search": 0,
        "sensing": 0
      },
      "chgTexSetting": {
        "hp_tbl": []
      },
      "entry_cond": {
        "timing": 0,
        "expr": "",
        "list": []
      },
      "wait_m": 0,
      "parent": ""
    },
    {
      "name": "id:2",
      "x": 3,
      "y": 3,
      "dir": 3,
      "ct_calc": 0,
      "ct_val": 0,
      "brave": 0,
      "faith": 0,
      "fvoff": 0,
      "ai": {
        "iname": "",
        "wait_e": 0,
        "search": 0,
        "sensing": 0
      },
      "chgTexSetting": {
        "hp_tbl": []
      },
      "entry_cond": {
        "timing": 0,
        "expr": "",
        "list": []
      },
      "wait_m": 0,
      "parent": ""
    },
    {
      "name": "id:3",
      "x": 2,
      "y": 3,
      "dir": 3,
      "ct_calc": 0,
      "ct_val": 0,
      "brave": 0,
      "faith": 0,
      "fvoff": 0,
      "ai": {
        "iname": "",
        "wait_e": 0,
        "search": 0,
        "sensing": 0
      },
      "chgTexSetting": {
        "hp_tbl": []
      },
      "entry_cond": {
        "timing": 0,
        "expr": "",
        "list": []
      },
      "wait_m": 0,
      "parent": ""
    },
    {
      "name": "id:4",
      "x": 2,
      "y": 8,
      "dir": 0,
      "ct_calc": 0,
      "ct_val": 0,
      "brave": 0,
      "faith": 0,
      "fvoff": 0,
      "ai": {
        "iname": "",
        "wait_e": 0,
        "search": 0,
        "sensing": 0
      },
      "chgTexSetting": {
        "hp_tbl": []
      },
      "entry_cond": {
        "timing": 0,
        "expr": "",
        "list": []
      },
      "wait_m": 0,
      "parent": ""
    },
    {
      "name": "id:5",
      "x": 3,
      "y": 8,
      "dir": 0,
      "ct_calc": 0,
      "ct_val": 0,
      "brave": 0,
      "faith": 0,
      "fvoff": 0,
      "ai": {
        "iname": "",
        "wait_e": 0,
        "search": 0,
        "sensing": 0
      },
      "chgTexSetting": {
        "hp_tbl": []
      },
      "entry_cond": {
        "timing": 0,
        "expr": "",
        "list": []
      },
      "wait_m": 0,
      "parent": ""
    },
    {
      "name": "id:6",
      "x": 3,
      "y": 4,
      "dir": 3,
      "ct_calc": 0,
      "ct_val": 0,
      "brave": 0,
      "faith": 0,
      "fvoff": 0,
      "ai": {
        "iname": "",
        "wait_e": 0,
        "search": 0,
        "sensing": 0
      },
      "chgTexSetting": {
        "hp_tbl": []
      },
      "entry_cond": {
        "timing": 0,
        "expr": "",
        "list": []
      },
      "wait_m": 0,
      "parent": ""
    },
    {
      "name": "",
      "x": 3,
      "y": 7,
      "dir": 0,
      "ct_calc": 0,
      "ct_val": 0,
      "brave": 0,
      "faith": 0,
      "fvoff": 0,
      "ai": {
        "iname": "",
        "wait_e": 0,
        "search": 3,
        "sensing": 0
      },
      "chgTexSetting": {
        "hp_tbl": []
      },
      "entry_cond": {
        "timing": 0,
        "expr": "",
        "list": []
      },
      "wait_m": 0,
      "parent": ""
    },
    {
      "name": "",
      "x": 2,
      "y": 7,
      "dir": 0,
      "ct_calc": 0,
      "ct_val": 0,
      "brave": 0,
      "faith": 0,
      "fvoff": 0,
      "ai": {
        "iname": "",
        "wait_e": 0,
        "search": 3,
        "sensing": 0
      },
      "chgTexSetting": {
        "hp_tbl": []
      },
      "entry_cond": {
        "timing": 0,
        "expr": "",
        "list": []
      },
      "wait_m": 0,
      "parent": ""
    }
  ],
  "enemy": [
    {
      "name": "",
      "x": 2,
      "y": 0,
      "dir": 1,
      "ct_calc": 0,
      "ct_val": 0,
      "brave": 0,
      "faith": 0,
      "fvoff": 0,
      "ai": {
        "iname": "AI_ENEMY_BOM_LV1",
        "wait_e": 0,
        "search": 20,
        "sensing": 0
      },
      "chgTexSetting": {
        "hp_tbl": []
      },
      "entry_cond": {
        "timing": 0,
        "expr": "",
        "list": []
      },
      "wait_m": 0,
      "parent": "",
      "enemy_id": 2,
      "iname": "UN_LW_E_BOMB",
      "side": 1,
      "dead": 0,
      "lv": 8,
      "rare": 0,
      "awake": 1,
      "rank": 0,
      "elem": 1,
      "search": 0,
      "ctrl": 0,
      "nottar": 0,
      "fixdir": 0,
      "drop": "QE_ST_01010205",
      "crystal": "CRYSTAL_00",
      "steal": "",
      "stealValue": 100,
      "nrmSkl": {
        "iname": "",
        "rank": 0,
        "rate": 0
      },
      "skills": [
        {
          "iname": "SK_BOMB_M_04",
          "rank": 8,
          "rate": 80
        },
        {
          "iname": "SK_BOMB_M_03",
          "rank": 10,
          "rate": 100
        },
        {
          "iname": "SK_BTL_MAG_1-999_U",
          "rank": 10,
          "rate": 100
        },
        {
          "iname": "SK_BTL_AVOI_1_999_D",
          "rank": 300,
          "rate": 100
        },
        {
          "iname": "SK_BOMB_M_02",
          "rank": 20,
          "rate": 0
        }
      ],
      "fskl": "",
      "weight": 0,
      "tag": 0,
      "raid_type": 0,
      "dispOrder": 0,
      "referenceGObjName": ""
    },
    {
      "name": "",
      "x": 6,
      "y": 0,
      "dir": 1,
      "ct_calc": 0,
      "ct_val": 0,
      "brave": 0,
      "faith": 0,
      "fvoff": 0,
      "ai": {
        "iname": "AI_ENEMY_BOM_LV1",
        "wait_e": 0,
        "search": 20,
        "sensing": 0
      },
      "chgTexSetting": {
        "hp_tbl": []
      },
      "entry_cond": {
        "timing": 0,
        "expr": "",
        "list": []
      },
      "wait_m": 0,
      "parent": "",
      "enemy_id": 3,
      "iname": "UN_LW_E_BOMB",
      "side": 1,
      "dead": 0,
      "lv": 8,
      "rare": 0,
      "awake": 1,
      "rank": 0,
      "elem": 1,
      "search": 0,
      "ctrl": 0,
      "nottar": 0,
      "fixdir": 0,
      "drop": "QE_ST_01010205",
      "crystal": "CRYSTAL_00",
      "steal": "",
      "stealValue": 100,
      "nrmSkl": {
        "iname": "",
        "rank": 0,
        "rate": 0
      },
      "skills": [
        {
          "iname": "SK_BOMB_M_04",
          "rank": 6,
          "rate": 80
        },
        {
          "iname": "SK_BOMB_M_03",
          "rank": 10,
          "rate": 100
        },
        {
          "iname": "SK_BTL_MAG_1-999_U",
          "rank": 10,
          "rate": 100
        },
        {
          "iname": "SK_BTL_AVOI_1_999_D",
          "rank": 300,
          "rate": 100
        },
        {
          "iname": "SK_BOMB_M_02",
          "rank": 20,
          "rate": 0
        }
      ],
      "fskl": "",
      "weight": 0,
      "tag": 0,
      "raid_type": 0,
      "dispOrder": 0,
      "referenceGObjName": ""
    },
    {
      "name": "",
      "x": 6,
      "y": 9,
      "dir": 2,
      "ct_calc": 0,
      "ct_val": 0,
      "brave": 0,
      "faith": 0,
      "fvoff": 0,
      "ai": {
        "iname": "AI_ENEMY_BOM_LV1",
        "wait_e": 0,
        "search": 20,
        "sensing": 0
      },
      "chgTexSetting": {
        "hp_tbl": []
      },
      "entry_cond": {
        "timing": 0,
        "expr": "",
        "list": []
      },
      "wait_m": 0,
      "parent": "",
      "enemy_id": 4,
      "iname": "UN_LW_E_BOMB",
      "side": 1,
      "dead": 0,
      "lv": 8,
      "rare": 0,
      "awake": 1,
      "rank": 0,
      "elem": 1,
      "search": 0,
      "ctrl": 0,
      "nottar": 0,
      "fixdir": 0,
      "drop": "QE_ST_01010205",
      "crystal": "CRYSTAL_00",
      "steal": "",
      "stealValue": 100,
      "nrmSkl": {
        "iname": "",
        "rank": 0,
        "rate": 0
      },
      "skills": [
        {
          "iname": "SK_BOMB_M_04",
          "rank": 6,
          "rate": 80
        },
        {
          "iname": "SK_BOMB_M_03",
          "rank": 10,
          "rate": 100
        },
        {
          "iname": "SK_BTL_MAG_1-999_U",
          "rank": 10,
          "rate": 100
        },
        {
          "iname": "SK_BTL_AVOI_1_999_D",
          "rank": 300,
          "rate": 100
        },
        {
          "iname": "SK_BOMB_M_02",
          "rank": 20,
          "rate": 0
        }
      ],
      "fskl": "",
      "weight": 0,
      "tag": 0,
      "raid_type": 0,
      "dispOrder": 0,
      "referenceGObjName": ""
    },
    {
      "name": "e1a",
      "x": 0,
      "y": 2,
      "dir": 0,
      "ct_calc": 0,
      "ct_val": 0,
      "brave": 0,
      "faith": 0,
      "fvoff": 0,
      "ai": {
        "iname": "AI_ENEMY_MAGIC_LV1",
        "wait_e": 0,
        "search": 20,
        "sensing": 0
      },
      "chgTexSetting": {
        "hp_tbl": []
      },
      "entry_cond": {
        "timing": 0,
        "expr": "",
        "list": []
      },
      "wait_m": 0,
      "parent": "",
      "enemy_id": 5,
      "iname": "UN_LW_E_ELEM_01",
      "side": 1,
      "dead": 0,
      "lv": 8,
      "rare": 0,
      "awake": 1,
      "rank": 0,
      "elem": 6,
      "search": 0,
      "ctrl": 0,
      "nottar": 0,
      "fixdir": 0,
      "drop": "QE_ST_01010205",
      "crystal": "CRYSTAL_00",
      "steal": "",
      "stealValue": 100,
      "nrmSkl": {
        "iname": "",
        "rank": 0,
        "rate": 0
      },
      "skills": [
        {
          "iname": "SK_ELEM_M_11",
          "rank": 5,
          "rate": 80
        },
        {
          "iname": "SK_ELEM_R_01",
          "rank": 5,
          "rate": 100
        },
        {
          "iname": "SK_BTL_AVOI_1_999_D",
          "rank": 300,
          "rate": 100
        },
        {
          "iname": "SK_BTL_RES_DMOV_1_100_D",
          "rank": 100,
          "rate": 100
        }
      ],
      "fskl": "",
      "weight": 0,
      "tag": 0,
      "raid_type": 0,
      "dispOrder": 0,
      "referenceGObjName": ""
    },
    {
      "name": "e1b",
      "x": 8,
      "y": 7,
      "dir": 2,
      "ct_calc": 0,
      "ct_val": 0,
      "brave": 0,
      "faith": 0,
      "fvoff": 0,
      "ai": {
        "iname": "AI_ENEMY_MAGIC_LV1",
        "wait_e": 0,
        "search": 20,
        "sensing": 0
      },
      "chgTexSetting": {
        "hp_tbl": []
      },
      "entry_cond": {
        "timing": 0,
        "expr": "",
        "list": []
      },
      "wait_m": 0,
      "parent": "",
      "enemy_id": 6,
      "iname": "UN_LW_E_ELEM_01",
      "side": 1,
      "dead": 0,
      "lv": 8,
      "rare": 0,
      "awake": 1,
      "rank": 0,
      "elem": 6,
      "search": 0,
      "ctrl": 0,
      "nottar": 0,
      "fixdir": 0,
      "drop": "QE_ST_01010205",
      "crystal": "CRYSTAL_00",
      "steal": "",
      "stealValue": 100,
      "nrmSkl": {
        "iname": "",
        "rank": 0,
        "rate": 0
      },
      "skills": [
        {
          "iname": "SK_ELEM_M_11",
          "rank": 5,
          "rate": 80
        },
        {
          "iname": "SK_ELEM_R_01",
          "rank": 5,
          "rate": 100
        },
        {
          "iname": "SK_BTL_AVOI_1_999_D",
          "rank": 300,
          "rate": 100
        },
        {
          "iname": "SK_BTL_RES_DMOV_1_100_D",
          "rank": 100,
          "rate": 100
        }
      ],
      "fskl": "",
      "weight": 0,
      "tag": 0,
      "raid_type": 0,
      "dispOrder": 0,
      "referenceGObjName": ""
    },
    {
      "name": "",
      "x": 8,
      "y": 10,
      "dir": 2,
      "ct_calc": 0,
      "ct_val": 0,
      "brave": 0,
      "faith": 0,
      "fvoff": 0,
      "ai": {
        "iname": "AI_ENEMY_BOM_LV1",
        "wait_e": 0,
        "search": 20,
        "sensing": 0
      },
      "chgTexSetting": {
        "hp_tbl": []
      },
      "entry_cond": {
        "timing": 0,
        "expr": "",
        "list": []
      },
      "wait_m": 0,
      "parent": "",
      "enemy_id": 7,
      "iname": "UN_LW_E_BOMB",
      "side": 1,
      "dead": 0,
      "lv": 8,
      "rare": 0,
      "awake": 1,
      "rank": 0,
      "elem": 1,
      "search": 0,
      "ctrl": 0,
      "nottar": 0,
      "fixdir": 0,
      "drop": "QE_ST_01010205",
      "crystal": "CRYSTAL_00",
      "steal": "",
      "stealValue": 100,
      "nrmSkl": {
        "iname": "",
        "rank": 0,
        "rate": 0
      },
      "skills": [
        {
          "iname": "SK_BOMB_M_04",
          "rank": 6,
          "rate": 80
        },
        {
          "iname": "SK_BOMB_M_03",
          "rank": 11,
          "rate": 100
        },
        {
          "iname": "SK_BTL_MAG_1-999_U",
          "rank": 10,
          "rate": 100
        },
        {
          "iname": "SK_BTL_AVOI_1_999_D",
          "rank": 300,
          "rate": 100
        },
        {
          "iname": "SK_BOMB_M_02",
          "rank": 20,
          "rate": 0
        },
        {
          "iname": "SK_BTL_RES_DMOV_1_100_D",
          "rank": 100,
          "rate": 100
        }
      ],
      "fskl": "",
      "weight": 0,
      "tag": 0,
      "raid_type": 0,
      "dispOrder": 0,
      "referenceGObjName": ""
    },
    {
      "name": "e3a",
      "x": 8,
      "y": 2,
      "dir": 2,
      "ct_calc": 0,
      "ct_val": 0,
      "brave": 0,
      "faith": 0,
      "fvoff": 0,
      "ai": {
        "iname": "AI_ENEMY_ATK_LV1",
        "wait_e": 0,
        "search": 15,
        "sensing": 0
      },
      "chgTexSetting": {
        "hp_tbl": []
      },
      "entry_cond": {
        "timing": 0,
        "expr": "",
        "list": []
      },
      "wait_m": 0,
      "parent": "",
      "enemy_id": 8,
      "iname": "UN_LW_TU_ZUUU",
      "side": 1,
      "dead": 0,
      "lv": 8,
      "rare": 0,
      "awake": 1,
      "rank": 0,
      "elem": 4,
      "search": 0,
      "ctrl": 0,
      "nottar": 0,
      "fixdir": 0,
      "drop": "QE_ST_01010205",
      "crystal": "CRYSTAL_00",
      "steal": "",
      "stealValue": 100,
      "nrmSkl": {
        "iname": "",
        "rank": 0,
        "rate": 0
      },
      "skills": [
        {
          "iname": "SK_BTL_AVOI_1_999_D",
          "rank": 300,
          "rate": 100
        },
        {
          "iname": "SK_ZUUU_M_01",
          "rank": 5,
          "rate": 50
        },
        {
          "iname": "SK_ZUUU_M_02",
          "rank": 5,
          "rate": 80
        },
        {
          "iname": "SK_ZUUU_M_03",
          "rank": 5,
          "rate": 0
        },
        {
          "iname": "SK_BTL_RES_POISON_1_100_D",
          "rank": 100,
          "rate": 100
        },
        {
          "iname": "SK_BTL_SPD_1-999_D",
          "rank": 30,
          "rate": 100
        }
      ],
      "fskl": "",
      "weight": 0,
      "tag": 0,
      "raid_type": 0,
      "dispOrder": 0,
      "referenceGObjName": ""
    },
    {
      "name": "",
      "x": 3,
      "y": 5,
      "dir": 0,
      "ct_calc": 0,
      "ct_val": 0,
      "brave": 0,
      "faith": 0,
      "fvoff": 0,
      "ai": {
        "iname": "",
        "wait_e": 0,
        "search": 3,
        "sensing": 0
      },
      "chgTexSetting": {
        "hp_tbl": []
      },
      "entry_cond": {
        "timing": 0,
        "expr": "",
        "list": []
      },
      "wait_m": 0,
      "parent": "",
      "enemy_id": 9,
      "iname": "UN_GM_TREASURE",
      "side": 1,
      "dead": 0,
      "lv": 1,
      "rare": 0,
      "awake": 1,
      "rank": 0,
      "elem": 0,
      "search": 0,
      "ctrl": 0,
      "nottar": 1,
      "fixdir": 0,
      "drop": "QE_ST_01010205",
      "crystal": "",
      "steal": "",
      "stealValue": 100,
      "nrmSkl": {
        "iname": "",
        "rank": 0,
        "rate": 0
      },
      "skills": [],
      "fskl": "",
      "weight": 0,
      "tag": 0,
      "raid_type": 0,
      "dispOrder": 0,
      "referenceGObjName": ""
    }
  ],
  "arena": [],
  "wcond": {
    "timing": 0,
    "expr": "",
    "list": [
      {
        "self": {
          "type": 1,
          "json": "{\"side\":1,\"tag\":\"\"}"
        },
        "childs": []
      }
    ]
  },
  "lcond": {
    "timing": 0,
    "expr": "",
    "list": [
      {
        "self": {
          "type": 1,
          "json": "{\"side\":0,\"tag\":\"\"}"
        },
        "childs": []
      }
    ]
  },
  "gcond": [],
  "drop_table_list": [
    {
      "type": 0,
      "iname": "QE_ST_01010205",
      "num": 1,
      "drop_list": [
        {
          "drop_data": {
            "type": 0,
            "iname": "IT_JB_MM_ALL",
            "num": 2,
            "secret": 0
          },
          "weight": 740
        },
        {
          "drop_data": {
            "type": 0,
            "iname": "IT_JB_FIST_01",
            "num": 1,
            "secret": 0
          },
          "weight": 1368
        },
        {
          "drop_data": {
            "type": 0,
            "iname": "IT_AF_MAT_SAP_01",
            "num": 1,
            "secret": 0
          },
          "weight": 720
        },
        {
          "drop_data": {
            "type": 0,
            "iname": "IT_AF_MAT_LIQUID_01",
            "num": 1,
            "secret": 0
          },
          "weight": 720
        },
        {
          "drop_data": {
            "type": 0,
            "iname": "IT_JB_IM_ANGEL_1",
            "num": 1,
            "secret": 0
          },
          "weight": 310
        },
        {
          "drop_data": {
            "type": 0,
            "iname": "IT_JB_MM_RDM",
            "num": 1,
            "secret": 0
          },
          "weight": 157
        },
        {
          "drop_data": {
            "type": 0,
            "iname": "IT_JB_MM_SAM",
            "num": 1,
            "secret": 0
          },
          "weight": 157
        },
        {
          "drop_data": {
            "type": 0,
            "iname": "IT_JB_MACE_01",
            "num": 1,
            "secret": 0
          },
          "weight": 1368
        },
        {
          "drop_data": {
            "type": -1,
            "iname": "",
            "num": 0,
            "secret": 0
          },
          "weight": 2800
        },
        {
          "drop_data": {
            "type": 0,
            "iname": "IT_JB_EM_SHINE_1",
            "num": 1,
            "secret": 0
          },
          "weight": 1450
        },
        {
          "drop_data": {
            "type": 0,
            "iname": "IT_AF_LW_HLM_002",
            "num": 1,
            "secret": 0
          },
          "weight": 210
        }
      ]
    },
    {
      "type": 1,
      "iname": "CRYSTAL_00",
      "num": 1,
      "drop_list": [
        {
          "drop_data": {
            "type": 99,
            "iname": "UN_GM_CRYSTAL",
            "num": 0,
            "secret": 0
          },
          "weight": 50
        },
        {
          "drop_data": {
            "type": 99,
            "iname": "UN_GM_CRYSTAL_01",
            "num": 1,
            "secret": 0
          },
          "weight": 50
        }
      ]
    }
  ]
}