{
    "infos": [
        {
            "key": "VC_LW_GLEM",
            "value": "Rock Cliff Titan, Golem"
        },
        {
            "key": "VC_LW_IFRT",
            "value": "Howl of Ferocious Blaze, Ifrit"
        },
        {
            "key": "VC_LW_SIRE",
            "value": "Aquatic Songstress, Siren"
        },
        {
            "key": "VC_LW_SOKYU",
            "value": "Second Division of the Kingdom of Leonis, «Caelum»"
        },
        {
            "key": "VC_LW_TRAINING",
            "value": "Becoming Stronger Than Anyone Else"
        },
        {
            "key": "VC_LW_MACR",
            "value": "Trousseau​"
        },
        {
            "key": "VC_LW_MURG",
            "value": "Echoing Screams"
        },
        {
            "key": "VC_LW_GRSR",
            "value": "Dashing Over a Snowy Field"
        },
        {
            "key": "VC_FF14_MV1",
            "value": "Scions of Shadow"
        },
        {
            "key": "VC_LW_IGNT",
            "value": "Metal Daemon, Iron Giant"
        },
        {
            "key": "VC_LW_BHMT",
            "value": "Malevolent Legendary Beast, Behemoth"
        },
        {
            "key": "VC_LW_MABR",
            "value": "Defiling Curse, Malboro"
        },
        {
            "key": "VC_LW_SHIV",
            "value": "Freezer of All, Shiva"
        },
        {
            "key": "VC_LW_FAMILY",
            "value": "Birth of New Life"
        },
        {
            "key": "VC_LW_KTON",
            "value": "Secret Orders"
        },
        {
            "key": "VC_LW_PROPOSE",
            "value": "Vow of Love"
        },
        {
            "key": "VC_LW_SDLX",
            "value": "Cleansing the Mind"
        },
        {
            "key": "VC_LW_TEAPARTY",
            "value": "Fleeting Tranquility"
        },
        {
            "key": "VC_LW_HUNT",
            "value": "Sharpened Concentration"
        },
        {
            "key": "VC_FF14_MV2",
            "value": "Shadowbringers"
        },
        {
            "key": "VC_LW_CACT",
            "value": "Instantaneous 1,000 Needles, Cactuar"
        },
        {
            "key": "VC_LW_ARMN_01",
            "value": "Magic Eye Beam, Floateye"
        },
        {
            "key": "VC_LW_ZUUU",
            "value": "Enormous Avian, Zuu"
        },
        {
            "key": "VC_LW_OGRE",
            "value": "Herculean Demon, Ogre"
        },
        {
            "key": "VC_LW_BOMB",
            "value": "Explosive Orb, Bomb"
        },
        {
            "key": "VC_LW_BYLO",
            "value": "Gluttonous King's Arrival"
        },
        {
            "key": "VC_LW_RART",
            "value": "Long-Awaited Holiday"
        },
        {
            "key": "VC_LW_RYER",
            "value": "Great Detective Little Leela"
        },
        {
            "key": "VC_LW_VNLA",
            "value": "Beguiling Witch"
        },
        {
            "key": "VC_LW_RIRY",
            "value": "Fun Time"
        },
        {
            "key": "VC_LW_LEONIS",
            "value": "Flag of Leonis"
        },
        {
            "key": "VC_LW_HOURN",
            "value": "Flag of Hourne"
        },
        {
            "key": "VC_LW_FENICE",
            "value": "Flag of Fennes"
        },
        {
            "key": "VC_LW_WEZETT",
            "value": "Flag of Wezette"
        },
        {
            "key": "VC_LW_CRYSTAL",
            "value": "Flag of the Crystal Sanctum"
        },
        {
            "key": "VC_LW_LEONIS2",
            "value": "Leonis Castle"
        },
        {
            "key": "VC_LW_HOURN2",
            "value": "Hourne Castle"
        },
        {
            "key": "VC_LW_FENICE2",
            "value": "Fennes Castle"
        },
        {
            "key": "VC_LW_WEZETT2",
            "value": "Wezette Castle"
        },
        {
            "key": "VC_LW_DYNVERK",
            "value": "Dynverk Cathedral"
        },
        {
            "key": "VC_LW_TRSV_01",
            "value": "Long-Distance Communication Device «Heaven»"
        },
        {
            "key": "VC_LW_TRSV_02",
            "value": "Long-Distance Communication Device «Earth»"
        },
        {
            "key": "VC_LW_MIRROR",
            "value": "Far-Reaching Mirror"
        },
        {
            "key": "VC_EXP_01",
            "value": "Growth Egg (N)"
        },
        {
            "key": "VC_EXP_02",
            "value": "Growth Egg (R)"
        },
        {
            "key": "VC_EXP_03",
            "value": "Growth Egg (SR)"
        }
    ]
}