[
    {
        "x": 0,
        "y": 0,
        "h": 3,
        "t": "TAIL_KEEP_OUT"
    },
    {
        "x": 1,
        "y": 0,
        "h": 2,
        "t": ""
    },
    {
        "x": 2,
        "y": 0,
        "h": 2,
        "t": ""
    },
    {
        "x": 3,
        "y": 0,
        "h": 2,
        "t": ""
    },
    {
        "x": 4,
        "y": 0,
        "h": 1,
        "t": ""
    },
    {
        "x": 5,
        "y": 0,
        "h": 1,
        "t": ""
    },
    {
        "x": 6,
        "y": 0,
        "h": 1,
        "t": ""
    },
    {
        "x": 7,
        "y": 0,
        "h": 1,
        "t": ""
    },
    {
        "x": 8,
        "y": 0,
        "h": 1,
        "t": ""
    },
    {
        "x": 9,
        "y": 0,
        "h": 1,
        "t": ""
    },
    {
        "x": 0,
        "y": 1,
        "h": 6,
        "t": "TAIL_KEEP_OUT"
    },
    {
        "x": 1,
        "y": 1,
        "h": 2,
        "t": ""
    },
    {
        "x": 2,
        "y": 1,
        "h": 2,
        "t": ""
    },
    {
        "x": 3,
        "y": 1,
        "h": 1,
        "t": ""
    },
    {
        "x": 4,
        "y": 1,
        "h": 1,
        "t": ""
    },
    {
        "x": 5,
        "y": 1,
        "h": 1,
        "t": ""
    },
    {
        "x": 6,
        "y": 1,
        "h": 1,
        "t": ""
    },
    {
        "x": 7,
        "y": 1,
        "h": 1,
        "t": ""
    },
    {
        "x": 8,
        "y": 1,
        "h": 1,
        "t": ""
    },
    {
        "x": 9,
        "y": 1,
        "h": 1,
        "t": ""
    },
    {
        "x": 0,
        "y": 2,
        "h": 8,
        "t": "TAIL_KEEP_OUT"
    },
    {
        "x": 1,
        "y": 2,
        "h": 3,
        "t": ""
    },
    {
        "x": 2,
        "y": 2,
        "h": 2,
        "t": ""
    },
    {
        "x": 3,
        "y": 2,
        "h": 1,
        "t": ""
    },
    {
        "x": 4,
        "y": 2,
        "h": 1,
        "t": ""
    },
    {
        "x": 5,
        "y": 2,
        "h": 1,
        "t": ""
    },
    {
        "x": 6,
        "y": 2,
        "h": 0,
        "t": "TAIL_KEEP_OUT"
    },
    {
        "x": 7,
        "y": 2,
        "h": 0,
        "t": "TAIL_KEEP_OUT"
    },
    {
        "x": 8,
        "y": 2,
        "h": 1,
        "t": ""
    },
    {
        "x": 9,
        "y": 2,
        "h": 1,
        "t": ""
    },
    {
        "x": 0,
        "y": 3,
        "h": 8,
        "t": "TAIL_KEEP_OUT"
    },
    {
        "x": 1,
        "y": 3,
        "h": 3,
        "t": ""
    },
    {
        "x": 2,
        "y": 3,
        "h": 1,
        "t": ""
    },
    {
        "x": 3,
        "y": 3,
        "h": 1,
        "t": ""
    },
    {
        "x": 4,
        "y": 3,
        "h": 0,
        "t": ""
    },
    {
        "x": 5,
        "y": 3,
        "h": 0,
        "t": ""
    },
    {
        "x": 6,
        "y": 3,
        "h": 0,
        "t": "TAIL_KEEP_OUT"
    },
    {
        "x": 7,
        "y": 3,
        "h": 0,
        "t": "TAIL_KEEP_OUT"
    },
    {
        "x": 8,
        "y": 3,
        "h": 0,
        "t": ""
    },
    {
        "x": 9,
        "y": 3,
        "h": 0,
        "t": ""
    },
    {
        "x": 0,
        "y": 4,
        "h": 0,
        "t": "TAIL_KEEP_OUT"
    },
    {
        "x": 1,
        "y": 4,
        "h": 0,
        "t": "TAIL_KEEP_OUT"
    },
    {
        "x": 2,
        "y": 4,
        "h": 0,
        "t": "TAIL_KEEP_OUT"
    },
    {
        "x": 3,
        "y": 4,
        "h": 0,
        "t": "TAIL_KEEP_OUT"
    },
    {
        "x": 4,
        "y": 4,
        "h": 0,
        "t": "TAIL_KEEP_OUT"
    },
    {
        "x": 5,
        "y": 4,
        "h": 0,
        "t": ""
    },
    {
        "x": 6,
        "y": 4,
        "h": 0,
        "t": "TAIL_KEEP_OUT"
    },
    {
        "x": 7,
        "y": 4,
        "h": 0,
        "t": "TAIL_KEEP_OUT"
    },
    {
        "x": 8,
        "y": 4,
        "h": 0,
        "t": ""
    },
    {
        "x": 9,
        "y": 4,
        "h": 1,
        "t": ""
    },
    {
        "x": 0,
        "y": 5,
        "h": 0,
        "t": "TAIL_KEEP_OUT"
    },
    {
        "x": 1,
        "y": 5,
        "h": 0,
        "t": "TAIL_KEEP_OUT"
    },
    {
        "x": 2,
        "y": 5,
        "h": 0,
        "t": "TAIL_KEEP_OUT"
    },
    {
        "x": 3,
        "y": 5,
        "h": 0,
        "t": "TAIL_KEEP_OUT"
    },
    {
        "x": 4,
        "y": 5,
        "h": 0,
        "t": "TAIL_KEEP_OUT"
    },
    {
        "x": 5,
        "y": 5,
        "h": 0,
        "t": ""
    },
    {
        "x": 6,
        "y": 5,
        "h": 0,
        "t": "TAIL_KEEP_OUT"
    },
    {
        "x": 7,
        "y": 5,
        "h": 0,
        "t": ""
    },
    {
        "x": 8,
        "y": 5,
        "h": 0,
        "t": ""
    },
    {
        "x": 9,
        "y": 5,
        "h": 2,
        "t": ""
    },
    {
        "x": 0,
        "y": 6,
        "h": 10,
        "t": "TAIL_KEEP_OUT"
    },
    {
        "x": 1,
        "y": 6,
        "h": 8,
        "t": ""
    },
    {
        "x": 2,
        "y": 6,
        "h": 4,
        "t": ""
    },
    {
        "x": 3,
        "y": 6,
        "h": 1,
        "t": ""
    },
    {
        "x": 4,
        "y": 6,
        "h": 1,
        "t": ""
    },
    {
        "x": 5,
        "y": 6,
        "h": 0,
        "t": ""
    },
    {
        "x": 6,
        "y": 6,
        "h": 0,
        "t": ""
    },
    {
        "x": 7,
        "y": 6,
        "h": 0,
        "t": ""
    },
    {
        "x": 8,
        "y": 6,
        "h": 2,
        "t": ""
    },
    {
        "x": 9,
        "y": 6,
        "h": 2,
        "t": ""
    },
    {
        "x": 0,
        "y": 7,
        "h": 8,
        "t": ""
    },
    {
        "x": 1,
        "y": 7,
        "h": 8,
        "t": ""
    },
    {
        "x": 2,
        "y": 7,
        "h": 5,
        "t": ""
    },
    {
        "x": 3,
        "y": 7,
        "h": 2,
        "t": ""
    },
    {
        "x": 4,
        "y": 7,
        "h": 2,
        "t": ""
    },
    {
        "x": 5,
        "y": 7,
        "h": 2,
        "t": ""
    },
    {
        "x": 6,
        "y": 7,
        "h": 1,
        "t": ""
    },
    {
        "x": 7,
        "y": 7,
        "h": 1,
        "t": ""
    },
    {
        "x": 8,
        "y": 7,
        "h": 2,
        "t": ""
    },
    {
        "x": 9,
        "y": 7,
        "h": 2,
        "t": ""
    },
    {
        "x": 0,
        "y": 8,
        "h": 8,
        "t": ""
    },
    {
        "x": 1,
        "y": 8,
        "h": 8,
        "t": ""
    },
    {
        "x": 2,
        "y": 8,
        "h": 5,
        "t": ""
    },
    {
        "x": 3,
        "y": 8,
        "h": 4,
        "t": ""
    },
    {
        "x": 4,
        "y": 8,
        "h": 4,
        "t": ""
    },
    {
        "x": 5,
        "y": 8,
        "h": 3,
        "t": ""
    },
    {
        "x": 6,
        "y": 8,
        "h": 3,
        "t": ""
    },
    {
        "x": 7,
        "y": 8,
        "h": 3,
        "t": ""
    },
    {
        "x": 8,
        "y": 8,
        "h": 2,
        "t": ""
    },
    {
        "x": 9,
        "y": 8,
        "h": 2,
        "t": ""
    },
    {
        "x": 0,
        "y": 9,
        "h": 7,
        "t": ""
    },
    {
        "x": 1,
        "y": 9,
        "h": 7,
        "t": ""
    },
    {
        "x": 2,
        "y": 9,
        "h": 6,
        "t": ""
    },
    {
        "x": 3,
        "y": 9,
        "h": 5,
        "t": ""
    },
    {
        "x": 4,
        "y": 9,
        "h": 4,
        "t": ""
    },
    {
        "x": 5,
        "y": 9,
        "h": 4,
        "t": ""
    },
    {
        "x": 6,
        "y": 9,
        "h": 3,
        "t": ""
    },
    {
        "x": 7,
        "y": 9,
        "h": 3,
        "t": ""
    },
    {
        "x": 8,
        "y": 9,
        "h": 2,
        "t": ""
    },
    {
        "x": 9,
        "y": 9,
        "h": 2,
        "t": ""
    },
    {
        "x": 0,
        "y": 10,
        "h": 9,
        "t": "TAIL_KEEP_OUT"
    },
    {
        "x": 1,
        "y": 10,
        "h": 7,
        "t": ""
    },
    {
        "x": 2,
        "y": 10,
        "h": 6,
        "t": ""
    },
    {
        "x": 3,
        "y": 10,
        "h": 5,
        "t": ""
    },
    {
        "x": 4,
        "y": 10,
        "h": 4,
        "t": ""
    },
    {
        "x": 5,
        "y": 10,
        "h": 4,
        "t": ""
    },
    {
        "x": 6,
        "y": 10,
        "h": 4,
        "t": "TAIL_KEEP_OUT"
    },
    {
        "x": 7,
        "y": 10,
        "h": 4,
        "t": "TAIL_KEEP_OUT"
    },
    {
        "x": 8,
        "y": 10,
        "h": 2,
        "t": ""
    },
    {
        "x": 9,
        "y": 10,
        "h": 4,
        "t": "TAIL_KEEP_OUT"
    }
]